;*************************************************************
;*************************************************************
;**                                                         **
;**                        arctan                           **
;**                                                         **
;*************************************************************
;*************************************************************
In: FL_SPCRES=0 FL_CPXRES=0 SD=0 RMODE=0 IM=2compl SS=4 WS=64
Func: fnArctan



;=======================================
; arctan(Long Integer) --> Real
;=======================================
In:  AM=DEG FL_ASLIFT=0 FL_CPXRES=0 RX=LonI:"-2"
Out: EC=0 FL_CPXRES=0 FL_ASLIFT=1 RL=LonI:"-2" RX=Real:"-63.434948822922010648427806279546705328795785700354778972013984":DEG

In:  AM=DEG FL_ASLIFT=0 FL_CPXRES=0 RX=LonI:"-1"
Out: EC=0 FL_CPXRES=0 FL_ASLIFT=1 RL=LonI:"-1" RX=Real:"-45":DEG

In:  AM=GRAD FL_ASLIFT=0 FL_CPXRES=0 RX=LonI:"0"
Out: EC=0 FL_CPXRES=0 FL_ASLIFT=1 RL=LonI:"0" RX=Real:"0":GRAD

In:  AM=RAD FL_ASLIFT=0 FL_CPXRES=0 RX=LonI:"1"
Out: EC=0 FL_CPXRES=0 FL_ASLIFT=1 RL=LonI:"1" RX=Real:"0.78539816339744830961566084581987572104929234984377645524373615":RAD

In:  AM=DEG FL_ASLIFT=0 FL_CPXRES=0 RX=LonI:"2"
Out: EC=0 FL_CPXRES=0 FL_ASLIFT=1 RL=LonI:"2" RX=Real:"63.434948822922010648427806279546705328795785700354778972013984":DEG



;=======================================
; arctan(Time)
;=======================================



;=======================================
; arctan(Date)
;=======================================



;=======================================
; arctan(String) --> Error24
;=======================================
In:  FL_ASLIFT=0 RX=Stri:"String test"
Out: EC=24 FL_ASLIFT=0 RX=Stri:"String test"



;=======================================
; arctan(Real Matrix)
;=======================================
In:  AM=RAD FL_ASLIFT=0 FL_CPXRES=0 RX=ReMa:"M2,3[0,-1,0.2,3,-4,0.5]"
Out: EC=0 FL_CPXRES=0 FL_ASLIFT=1 RL=ReMa:"M2,3[0,-1,0.2,3,-4,0.5]" RX=ReMa:"M2,3[0,-0.785398163397448309615660845819875721049,0.197395559849880758370049765194790293448,1.24904577239825442582991707728109012308,-1.32581766366803246505923921042847563118,0.463647609000806116214256231461214402029]"

In:  AM=DEG FL_ASLIFT=0 FL_CPXRES=0 RX=ReMa:"M2,3[0,-1,0.2,3,-4,0.5]"
Out: EC=0 FL_CPXRES=0 FL_ASLIFT=1 RL=ReMa:"M2,3[0,-1,0.2,3,-4,0.5]" RX=ReMa:"M2,3[0,-45,11.3099324740202130864745054383398605797,71.5650511770779893515721937204532946712,-75.9637565320735214171076798408365756790,26.5650511770779893515721937204532946712]"



;=======================================
; arctan(Complex Matrix)
;=======================================
In:  AM=RAD FL_ASLIFT=0 FL_CPXRES=0 RX=CxMa:"M2,3[0,0i-0.5,2i-1,-3i2,4i3,-5i-4]"
Out: EC=0 FL_CPXRES=1 FL_ASLIFT=1 RL=CxMa:"M2,3[0,0i-0.5,2i-1,-3i2,4i3,-5i-4]" RX=CxMa:"M2,3[0,0i-0.549306144334054845697622618461262852324,1.178097245096172464423491268729813581574i-0.173286795139986327354308030364544142019,-1.338972522294493561124193575909144241084i0.146946666225529752047432785154715942442,1.40992104959657552253061938446042078259i0.11750090731143388841273425778708551618,-1.44830699523146454214528045103411353664i-0.09641562020299616723799601214481218587]"



;=======================================
; arctan(Short Integer) --> Real
;=======================================
In:  AM=DEG FL_ASLIFT=0 FL_CPXRES=0 RX=ShoI:"2#7"
Out: EC=0 FL_CPXRES=0 FL_ASLIFT=1 RL=ShoI:"2#7" RX=Real:"63.434948822922010648427806279546705328795785700354778972013984":DEG



;=======================================
; arctan(Real) --> Real
;=======================================
In:  AM=DEG FL_ASLIFT=0 FL_CPXRES=0 RX=Real:"-2"
Out: EC=0 FL_CPXRES=0 FL_ASLIFT=1 RL=Real:"-2" RX=Real:"-63.434948822922010648427806279546705328795785700354778972013984":DEG

In:  AM=DEG FL_ASLIFT=0 FL_CPXRES=0 RX=Real:"-1"
Out: EC=0 FL_CPXRES=0 FL_ASLIFT=1 RL=Real:"-1" RX=Real:"-45":DEG

In:  AM=GRAD FL_ASLIFT=0 FL_CPXRES=0 RX=Real:"0"
Out: EC=0 FL_CPXRES=0 FL_ASLIFT=1 RL=Real:"0" RX=Real:"0":GRAD

In:  AM=RAD FL_ASLIFT=0 FL_CPXRES=0 RX=Real:"1"
Out: EC=0 FL_CPXRES=0 FL_ASLIFT=1 RL=Real:"1" RX=Real:"0.78539816339744830961566084581987572104929234984377645524373615":RAD

In:  AM=DEG FL_ASLIFT=0 FL_CPXRES=0 RX=Real:"2"
Out: EC=0 FL_CPXRES=0 FL_ASLIFT=1 RL=Real:"2" RX=Real:"63.434948822922010648427806279546705328795785700354778972013984":DEG

In:  AM=DEG FL_ASLIFT=0 FL_CPXRES=0 RX=Real:"-2":DEG
Out: EC=0 FL_CPXRES=0 FL_ASLIFT=1 RL=Real:"-2":DEG RX=Real:"-63.434948822922010648427806279546705328795785700354778972013984":DEG

In:  AM=DEG FL_ASLIFT=0 FL_CPXRES=0 RX=Real:"-1":RAD
Out: EC=0 FL_CPXRES=0 FL_ASLIFT=1 RL=Real:"-1":RAD RX=Real:"-45":DEG

In:  AM=GRAD FL_ASLIFT=0 FL_CPXRES=0 RX=Real:"0":MULTPI
Out: EC=0 FL_CPXRES=0 FL_ASLIFT=1 RL=Real:"0":MULTPI RX=Real:"0":GRAD

In:  AM=RAD FL_ASLIFT=0 FL_CPXRES=0 RX=Real:"1":GRAD
Out: EC=0 FL_CPXRES=0 FL_ASLIFT=1 RL=Real:"1":GRAD RX=Real:"0.78539816339744830961566084581987572104929234984377645524373615":RAD

In:  AM=GRAD FL_ASLIFT=0 FL_CPXRES=0 RX=Real:"-inf"
Out: EC=1 FL_CPXRES=0 FL_ASLIFT=0 RX=Real:"-inf"

In:  AM=GRAD FL_ASLIFT=0 FL_CPXRES=0 FL_SPCRES=1 RX=Real:"-inf"
Out: EC=0 FL_CPXRES=0 FL_ASLIFT=1 RL=Real:"-inf" RX=Real:"-100":GRAD

In:  AM=MULTPI FL_ASLIFT=0 FL_CPXRES=0 FL_SPCRES=0 RX=Real:"inf"
Out: EC=1 FL_CPXRES=0 FL_ASLIFT=0 RX=Real:"inf"

In:  AM=MULTPI FL_ASLIFT=0 FL_CPXRES=0 FL_SPCRES=1 RX=Real:"inf"
Out: EC=0 FL_CPXRES=0 FL_ASLIFT=1 RL=Real:"inf" RX=Real:"0.5":MULTPI

In:  AM=DEG FL_ASLIFT=0 FL_CPXRES=0 FL_SPCRES=0 RX=Real:"2":DMS
Out: EC=0 FL_CPXRES=0 FL_ASLIFT=1 RL=Real:"2":DMS RX=Real:"63.434948822922010648427806279546705328795785700354778972013984":DEG


;=======================================
; arctan(Complex) --> Complex
;=======================================
In:  AM=DEG FL_ASLIFT=0 FL_CPXRES=1 RX=Cplx:"-2 i -3"
Out: EC=0 FL_CPXRES=1 FL_ASLIFT=1 RL=Cplx:"-2 i -3" RX=Cplx:"-1.4099210495965755225306193844604207825882070519087248147710708 i -0.22907268296853876629588180294200276786252530497706561694799197"
