;*************************************************************
;*************************************************************
;**                                                         **
;**             Bessel function of the 2nd kind             **
;**                                                         **
;*************************************************************
;*************************************************************
;In: FL_SPCRES=0 FL_CPXRES=0 SD=0 RMODE=0 IM=2compl SS=4 WS=64
Func: fnBesselY



;=======================================
; Yn(Long Integer) --> Real
;=======================================
In:  AM=DEG FL_ASLIFT=0 FL_CPXRES=1 RY=LonI:"1" RX=LonI:"-2"
Out: EC=0 FL_CPXRES=1 FL_ASLIFT=1 RL=LonI:"-2" RX=Cplx:"0.1070324315409375468883707722774766i-1.153449615513746774404896484538274"

In:  AM=DEG FL_ASLIFT=0 FL_CPXRES=1 RY=LonI:"1" RX=LonI:"-1"
Out: EC=0 FL_CPXRES=1 FL_ASLIFT=1 RL=LonI:"-1" RX=Cplx:"0.7812128213002887165471500000479648i-0.8801011714898670319193644074378298"

In:  AM=DEG FL_ASLIFT=0 FL_CPXRES=0 RY=LonI:"1" RX=LonI:"0"
Out: EC=5 FL_CPXRES=0 FL_ASLIFT=0 RY=LonI:"1" RX=LonI:"0"

In:  AM=DEG FL_ASLIFT=0 FL_CPXRES=0 RY=LonI:"1" RX=LonI:"1"
Out: EC=0 FL_CPXRES=0 FL_ASLIFT=1 RL=LonI:"1" RX=Real:"-0.7812128213002887165471500000479648"

In:  AM=DEG FL_ASLIFT=0 FL_CPXRES=0 RY=LonI:"1" RX=LonI:"2"
Out: EC=0 FL_CPXRES=0 FL_ASLIFT=1 RL=LonI:"2" RX=Real:"-0.1070324315409375468883707722774766"



;=======================================
; Yn(Time) --> Error24
;=======================================



;=======================================
; Yn(Date) --> Error24
;=======================================



;=======================================
; Yn(String) --> Error24
;=======================================
;In:  FL_ASLIFT=0 RX=Stri:"String test"
;Out: EC=24 FL_ASLIFT=0 RX=Stri:"String test"



;=======================================
; Yn(Real Matrix) --> Error24
;=======================================



;=======================================
; Yn(Complex Matrix) --> Error24
;=======================================



;=======================================
; Yn(Short Integer) --> Error24
;=======================================



;=======================================
; Yn(Real) --> Real
;=======================================

; Non-integer order
In:  AM=DEG FL_ASLIFT=0 FL_CPXRES=1 RY=Real:"0.5" RX=Real:"-2"
Out: EC=0 FL_CPXRES=1 FL_ASLIFT=1 RL=Real:"-2" RX=Cplx:"0 i -0.2347857104062484691740346837934112"

In:  AM=DEG FL_ASLIFT=0 FL_CPXRES=1 RY=Real:"0.5" RX=Real:"-1"
Out: EC=0 FL_CPXRES=1 FL_ASLIFT=1 RL=Real:"-1" RX=Cplx:"0 i 0.4310988680183760795205209672985334"

In:  AM=DEG FL_ASLIFT=0 FL_CPXRES=1 RY=Real:"0.5" RX=Real:"-0.5"
Out: EC=0 FL_CPXRES=1 FL_ASLIFT=1 RL=Real:"-0.5" RX=Cplx:"0 i 0.9902458802434048800233519554234876"

In:  AM=DEG FL_ASLIFT=0 FL_CPXRES=0 RY=Real:"0.5" RX=Real:"0"
Out: EC=5 FL_CPXRES=0 FL_ASLIFT=0 RY=Real:"0.5" RX=Real:"0"

In:  AM=DEG FL_ASLIFT=0 FL_CPXRES=0 RY=Real:"0.5" RX=Real:"0.5"
Out: EC=0 FL_CPXRES=0 FL_ASLIFT=1 RL=Real:"0.5" RX=Real:"-0.9902458802434048800233519554234876"

In:  AM=DEG FL_ASLIFT=0 FL_CPXRES=0 RY=Real:"0.5" RX=Real:"1"
Out: EC=0 FL_CPXRES=0 FL_ASLIFT=1 RL=Real:"1" RX=Real:"-0.4310988680183760795205209672985334"

In:  AM=DEG FL_ASLIFT=0 FL_CPXRES=0 RY=Real:"0.5" RX=Real:"2"
Out: EC=0 FL_CPXRES=0 FL_ASLIFT=1 RL=Real:"2" RX=Real:"0.2347857104062484691740346837934112"

In:  AM=DEG FL_ASLIFT=0 FL_CPXRES=0 RY=Real:"0.5" RX=Real:"20"
Out: EC=0 FL_CPXRES=0 FL_ASLIFT=1 RL=Real:"20" RX=Real:"-0.07280690478506184855014192307265943"

; Trying a large argument...
In:  AM=DEG FL_ASLIFT=0 FL_CPXRES=0 RY=Real:"0.5" RX=Real:"100"
Out: EC=0 FL_CPXRES=0 FL_ASLIFT=1 RL=Real:"100" RX=Real:"-0.06880309146872808374611928107713233"

In:  AM=DEG FL_ASLIFT=0 FL_CPXRES=0 RY=Real:"0.5" RX=Real:"1234.567"
Out: EC=0 FL_CPXRES=0 FL_ASLIFT=1 RL=Real:"1234.567" RX=Real:"0.02263753296613188827138174425331727"


; Even order
In:  AM=DEG FL_ASLIFT=0 FL_CPXRES=1 RY=Real:"2" RX=Real:"-2"
Out: EC=0 FL_CPXRES=1 FL_ASLIFT=1 RL=Real:"-2" RX=Cplx:"-0.6174081041906826664849773650046345 i 0.7056680572312754383012415752383769"

In:  AM=DEG FL_ASLIFT=0 FL_CPXRES=1 RY=Real:"2" RX=Real:"-1"
Out: EC=0 FL_CPXRES=1 FL_ASLIFT=1 RL=Real:"-1" RX=Cplx:"-1.650682606816254391077226766119445 i 0.2298069698638009609392937626703332"

In:  AM=DEG FL_ASLIFT=0 FL_CPXRES=1 RY=Real:"2" RX=Real:"-0.5"
Out: EC=0 FL_CPXRES=1 FL_ASLIFT=1 RL=Real:"-0.5" RX=Cplx:"-5.441370837174265719605940066224858 i 0.06120804691736528261482726193282788"

In:  AM=DEG FL_ASLIFT=0 FL_CPXRES=0 RY=Real:"2" RX=Real:"0"
Out: EC=5 FL_CPXRES=0 FL_ASLIFT=0 RY=Real:"2" RX=Real:"0"

In:  AM=DEG FL_ASLIFT=0 FL_CPXRES=0 RY=Real:"2" RX=Real:"0.5"
Out: EC=0 FL_CPXRES=0 FL_ASLIFT=1 RL=Real:"0.5" RX=Real:"-5.441370837174265719605940066224858"

In:  AM=DEG FL_ASLIFT=0 FL_CPXRES=0 RY=Real:"2" RX=Real:"1"
Out: EC=0 FL_CPXRES=0 FL_ASLIFT=1 RL=Real:"1" RX=Real:"-1.650682606816254391077226766119445"

In:  AM=DEG FL_ASLIFT=0 FL_CPXRES=0 RY=Real:"2" RX=Real:"2"
Out: EC=0 FL_CPXRES=0 FL_ASLIFT=1 RL=Real:"2" RX=Real:"-0.6174081041906826664849773650046345"

In:  AM=DEG FL_ASLIFT=0 FL_CPXRES=0 RY=Real:"2" RX=Real:"20"
Out: EC=0 FL_CPXRES=0 FL_ASLIFT=1 RL=Real:"20" RX=Real:"-0.07919175824563596074812661642972780"

In:  AM=DEG FL_ASLIFT=0 FL_CPXRES=0 RY=Real:"2" RX=Real:"1234.567"
Out: EC=0 FL_CPXRES=0 FL_ASLIFT=1 RL=Real:"1234.567" RX=Real:"-0.01725055413346365858360575263697843"


; Odd order
In:  AM=DEG FL_ASLIFT=0 FL_CPXRES=1 RY=Real:"3" RX=Real:"-2"
Out: EC=0 FL_CPXRES=1 FL_ASLIFT=1 RL=Real:"-2" RX=Cplx:"1.127783776840427786081583957731792 i -0.2578864989488041021975866659384797"

In:  AM=DEG FL_ASLIFT=0 FL_CPXRES=1 RY=Real:"3" RX=Real:"-1"
Out: EC=0 FL_CPXRES=1 FL_ASLIFT=1 RL=Real:"-1" RX=Cplx:"5.821517605964728847761757064429814 i -0.03912670796533681183781064324350302"

In:  AM=DEG FL_ASLIFT=0 FL_CPXRES=1 RY=Real:"3" RX=Real:"-0.5"
Out: EC=0 FL_CPXRES=1 FL_ASLIFT=1 RL=Real:"-0.5" RX=Cplx:"42.05949430472388268765893589447557 i -0.005127459989174488150708943179559721"

In:  AM=DEG FL_ASLIFT=0 FL_CPXRES=0 RY=Real:"3" RX=Real:"0"
Out: EC=5 FL_CPXRES=0 FL_ASLIFT=0 RY=Real:"3" RX=Real:"0"

In:  AM=DEG FL_ASLIFT=0 FL_CPXRES=0 RY=Real:"3" RX=Real:"0.5"
Out: EC=0 FL_CPXRES=0 FL_ASLIFT=1 RL=Real:"0.5" RX=Real:"-42.05949430472388268765893589447557"

In:  AM=DEG FL_ASLIFT=0 FL_CPXRES=0 RY=Real:"3" RX=Real:"1"
Out: EC=0 FL_CPXRES=0 FL_ASLIFT=1 RL=Real:"1" RX=Real:"-5.821517605964728847761757064429814"

In:  AM=DEG FL_ASLIFT=0 FL_CPXRES=0 RY=Real:"3" RX=Real:"2"
Out: EC=0 FL_CPXRES=0 FL_ASLIFT=1 RL=Real:"2" RX=Real:"-1.127783776840427786081583957731792"

In:  AM=DEG FL_ASLIFT=0 FL_CPXRES=0 RY=Real:"3" RX=Real:"20"
Out: EC=0 FL_CPXRES=0 FL_ASLIFT=1 RL=Real:"20" RX=Real:"0.1496732627133941037143506999577507"

In:  AM=DEG FL_ASLIFT=0 FL_CPXRES=0 RY=Real:"3" RX=Real:"89.99"
Out: EC=0 FL_CPXRES=0 FL_ASLIFT=1 RL=Real:"89.99" RX=Real:"0.02342577824646149457245503005168607"

In:  AM=DEG FL_ASLIFT=0 FL_CPXRES=0 RY=Real:"3" RX=Real:"90"
Out: EC=0 FL_CPXRES=0 FL_ASLIFT=1 RL=Real:"90" RX=Real:"0.02261575351929685261394399433468493"

In:  AM=DEG FL_ASLIFT=0 FL_CPXRES=0 RY=Real:"3" RX=Real:"90.01"
Out: EC=0 FL_CPXRES=0 FL_ASLIFT=1 RL=Real:"90.01" RX=Real:"0.02180355987169057642307084578813730"

In:  AM=DEG FL_ASLIFT=0 FL_CPXRES=0 RY=Real:"3" RX=Real:"1234.567"
Out: EC=0 FL_CPXRES=0 FL_ASLIFT=1 RL=Real:"1234.567" RX=Real:"-0.01480249389056951815375474757069727"

In:  AM=DEG FL_ASLIFT=0 FL_CPXRES=0 RY=Real:"3" RX=Real:"1234567"
Out: EC=0 FL_CPXRES=0 FL_ASLIFT=1 RL=Real:"1234567" RX=Real:"-0.0002877915592419885464373514544432904"

In:  AM=DEG FL_ASLIFT=0 FL_CPXRES=0 RY=Real:"3" RX=Real:"1e+10"
Out: EC=0 FL_CPXRES=0 FL_ASLIFT=1 RL=Real:"1e+10" RX=Real:"2.175591753701320405794548943994536e-6"

In:  AM=DEG FL_ASLIFT=0 FL_CPXRES=0 RY=Real:"3" RX=Real:"1e+50"
Out: EC=0 FL_CPXRES=0 FL_ASLIFT=1 RL=Real:"1e+50" RX=Real:"-7.916714451809859325868806858692239e-26"


; Trying large order...

In:  AM=DEG FL_ASLIFT=0 FL_CPXRES=0 RY=Real:"90" RX=Real:"90"
Out: EC=0 FL_CPXRES=0 FL_ASLIFT=1 RL=Real:"90" RX=Real:"-0.1728885975886125864597962476515722"

In:  AM=DEG FL_ASLIFT=0 FL_CPXRES=0 RY=Real:"90.01" RX=Real:"90"
Out: EC=0 FL_CPXRES=0 FL_ASLIFT=1 RL=Real:"90" RX=Real:"-0.1732403662646405651277831212335490"

In:  AM=DEG FL_ASLIFT=0 FL_CPXRES=0 RY=Real:"90" RX=Real:"90.01"
Out: EC=0 FL_CPXRES=0 FL_ASLIFT=1 RL=Real:"90.01" RX=Real:"-0.1725304382748612429396571764289319"

In:  AM=DEG FL_ASLIFT=0 FL_CPXRES=0 RY=Real:"90.01" RX=Real:"90.01"
Out: EC=0 FL_CPXRES=0 FL_ASLIFT=1 RL=Real:"90.01" RX=Real:"-0.1728821939694891351106096051377863"

In:  AM=DEG FL_ASLIFT=0 FL_CPXRES=0 RY=Real:"90" RX=Real:"112.5"
Out: EC=0 FL_CPXRES=0 FL_ASLIFT=1 RL=Real:"112.5" RX=Real:"0.05739569131715978522274008914984225"

In:  AM=DEG FL_ASLIFT=0 FL_CPXRES=0 RY=Real:"90" RX=Real:"112.51"
Out: EC=0 FL_CPXRES=0 FL_ASLIFT=1 RL=Real:"112.51" RX=Real:"0.05691750254331328645405461276077660"


In:  AM=DEG FL_ASLIFT=0 FL_CPXRES=0 RY=Real:"100" RX=Real:"100"
Out: EC=0 FL_CPXRES=0 FL_ASLIFT=1 RL=Real:"100" RX=Real:"-0.1669214114175765065400064952787525"

In:  AM=DEG FL_ASLIFT=0 FL_CPXRES=0 RY=Real:"1000" RX=Real:"1"
Out: EC=0 FL_CPXRES=0 FL_ASLIFT=1 RL=Real:"1" RX=Real:"-1.372772895520836371202303129435548e2865"

In:  AM=DEG FL_ASLIFT=0 FL_CPXRES=0 RY=Real:"1000" RX=Real:"2"
Out: EC=0 FL_CPXRES=0 FL_ASLIFT=1 RL=Real:"2" RX=Real:"-1.2821211926793687128773661214640933e2564"

In:  AM=DEG FL_ASLIFT=0 FL_CPXRES=0 RY=Real:"1000" RX=Real:"500"
Out: EC=0 FL_CPXRES=0 FL_ASLIFT=1 RL=Real:"500" RX=Real:"-1.865283767876925234671458217938208e194"

In:  AM=DEG FL_ASLIFT=0 FL_CPXRES=0 RY=Real:"1000" RX=Real:"749.99"
Out: EC=0 FL_CPXRES=0 FL_ASLIFT=1 RL=Real:"749.99" RX=Real:"-4.568625902334630432394698496523476e56"

In:  AM=DEG FL_ASLIFT=0 FL_CPXRES=0 RY=Real:"1000" RX=Real:"750"
Out: EC=0 FL_CPXRES=0 FL_ASLIFT=1 RL=Real:"750" RX=Real:"-4.528549917365939561464913115601452e56"

In:  AM=DEG FL_ASLIFT=0 FL_CPXRES=0 RY=Real:"1000" RX=Real:"1000"
Out: EC=0 FL_CPXRES=0 FL_ASLIFT=1 RL=Real:"1000" RX=Real:"-0.07747600152072074367681957087826977"

In:  AM=DEG FL_ASLIFT=0 FL_CPXRES=0 RY=Real:"1000" RX=Real:"1250"
Out: EC=0 FL_CPXRES=0 FL_ASLIFT=1 RL=Real:"1250" RX=Real:"-0.02598230335292998578759829686592054"

In:  AM=DEG FL_ASLIFT=0 FL_CPXRES=0 RY=Real:"1000" RX=Real:"1250.01"
Out: EC=0 FL_CPXRES=0 FL_ASLIFT=1 RL=Real:"1250.01" RX=Real:"-0.02590246076623405186753243803311996"

In:  AM=DEG FL_ASLIFT=0 FL_CPXRES=0 RY=Real:"1000" RX=Real:"2000"
Out: EC=0 FL_CPXRES=0 FL_ASLIFT=1 RL=Real:"2000" RX=Real:"-0.01374559243784170743737620451640850"



; Trying negative order...

In:  AM=DEG FL_ASLIFT=0 FL_CPXRES=0 RY=Real:"-1000" RX=Real:"500"
Out: EC=0 FL_CPXRES=0 FL_ASLIFT=1 RL=Real:"500" RX=Real:"-1.865283767876925234671458217938208e194"

In:  AM=DEG FL_ASLIFT=0 FL_CPXRES=0 RY=Real:"-1000" RX=Real:"749.99"
Out: EC=0 FL_CPXRES=0 FL_ASLIFT=1 RL=Real:"749.99" RX=Real:"-4.568625902334630432394698496523476e56"

In:  AM=DEG FL_ASLIFT=0 FL_CPXRES=0 RY=Real:"-1000" RX=Real:"750"
Out: EC=0 FL_CPXRES=0 FL_ASLIFT=1 RL=Real:"750" RX=Real:"-4.528549917365939561464913115601452e56"

In:  AM=DEG FL_ASLIFT=0 FL_CPXRES=0 RY=Real:"-1000" RX=Real:"1250"
Out: EC=0 FL_CPXRES=0 FL_ASLIFT=1 RL=Real:"1250" RX=Real:"-0.02598230335292998578759829686592054"

In:  AM=DEG FL_ASLIFT=0 FL_CPXRES=0 RY=Real:"-1000" RX=Real:"1250.01"
Out: EC=0 FL_CPXRES=0 FL_ASLIFT=1 RL=Real:"1250.01" RX=Real:"-0.02590246076623405186753243803311996"

In:  AM=DEG FL_ASLIFT=0 FL_CPXRES=0 RY=Real:"-1000" RX=Real:"2000"
Out: EC=0 FL_CPXRES=0 FL_ASLIFT=1 RL=Real:"2000" RX=Real:"-0.01374559243784170743737620451640850"

In:  AM=DEG FL_ASLIFT=0 FL_CPXRES=0 RY=Real:"-123.4" RX=Real:"567"
Out: EC=0 FL_CPXRES=0 FL_ASLIFT=1 RL=Real:"567" RX=Real:"0.02187031403233805177874870131667550"



;=======================================
; Yn(Complex) --> Error24
;=======================================
