;*************************************************************
;*************************************************************
;**                                                         **
;**           Chebyshev polynomial of the 2nd kind          **
;**                                                         **
;*************************************************************
;*************************************************************
In: FL_SPCRES=0 FL_CPXRES=0 SD=0 RMODE=0 IM=2compl SS=4 WS=64
Func: fnChebyshevU



;=======================================
; Un(Long Integer) --> Real
;=======================================
In:  AM=DEG FL_ASLIFT=0 FL_CPXRES=0 RY=LonI:"1" RX=LonI:"10"
Out: EC=0 FL_CPXRES=0 FL_ASLIFT=1 RL=LonI:"10" RX=Real:"20"




;=======================================
; Un(Time) --> Error24
;=======================================



;=======================================
; Un(Date) --> Error24
;=======================================



;=======================================
; Un(String) --> Error24
;=======================================
In:  FL_ASLIFT=0 RX=Stri:"String test"
Out: EC=24 FL_ASLIFT=0 RX=Stri:"String test"



;=======================================
; Un(Real Matrix) --> Error24
;=======================================



;=======================================
; Un(Complex Matrix) --> Error24
;=======================================



;=======================================
; Un(Short Integer) --> Error24
;=======================================



;=======================================
; Un(Real) --> Real
;=======================================

; Error case
In:  AM=DEG FL_ASLIFT=0 FL_CPXRES=0 RZ=Real:"1" RY=Real:"-1" RX=Real:"0"
Out: EC=1 FL_CPXRES=0 FL_ASLIFT=0 RZ=Real:"1" RY=Real:"-1" RX=Real:"0"

; Linear
In:  AM=DEG FL_ASLIFT=0 FL_CPXRES=0 RY=Real:"1" RX=Real:"-10"
Out: EC=0 FL_CPXRES=0 FL_ASLIFT=1 RL=Real:"-10" RX=Real:"-20"

In:  AM=DEG FL_ASLIFT=0 FL_CPXRES=0 RY=Real:"1" RX=Real:"-2"
Out: EC=0 FL_CPXRES=0 FL_ASLIFT=1 RL=Real:"-2" RX=Real:"-4"

In:  AM=DEG FL_ASLIFT=0 FL_CPXRES=0 RY=Real:"1" RX=Real:"-0.5"
Out: EC=0 FL_CPXRES=0 FL_ASLIFT=1 RL=Real:"-0.5" RX=Real:"-1"

In:  AM=DEG FL_ASLIFT=0 FL_CPXRES=0 RY=Real:"1" RX=Real:"0"
Out: EC=0 FL_CPXRES=0 FL_ASLIFT=1 RL=Real:"0" RX=Real:"0"

In:  AM=DEG FL_ASLIFT=0 FL_CPXRES=0 RY=Real:"1" RX=Real:"0.1"
Out: EC=0 FL_CPXRES=0 FL_ASLIFT=1 RL=Real:"0.1" RX=Real:"0.2"

In:  AM=DEG FL_ASLIFT=0 FL_CPXRES=0 RY=Real:"1" RX=Real:"1"
Out: EC=0 FL_CPXRES=0 FL_ASLIFT=1 RL=Real:"1" RX=Real:"2"

; Quadratic
In:  AM=DEG FL_ASLIFT=0 FL_CPXRES=0 RY=Real:"2" RX=Real:"-10"
Out: EC=0 FL_CPXRES=0 FL_ASLIFT=1 RL=Real:"-10" RX=Real:"399"

In:  AM=DEG FL_ASLIFT=0 FL_CPXRES=0 RY=Real:"2" RX=Real:"-2"
Out: EC=0 FL_CPXRES=0 FL_ASLIFT=1 RL=Real:"-2" RX=Real:"15"

In:  AM=DEG FL_ASLIFT=0 FL_CPXRES=0 RY=Real:"2" RX=Real:"-0.5"
Out: EC=0 FL_CPXRES=0 FL_ASLIFT=1 RL=Real:"-0.5" RX=Real:"0"

In:  AM=DEG FL_ASLIFT=0 FL_CPXRES=0 RY=Real:"2" RX=Real:"0"
Out: EC=0 FL_CPXRES=0 FL_ASLIFT=1 RL=Real:"0" RX=Real:"-1"

In:  AM=DEG FL_ASLIFT=0 FL_CPXRES=0 RY=Real:"2" RX=Real:"0.1"
Out: EC=0 FL_CPXRES=0 FL_ASLIFT=1 RL=Real:"0.1" RX=Real:"-0.96"

In:  AM=DEG FL_ASLIFT=0 FL_CPXRES=0 RY=Real:"2" RX=Real:"1"
Out: EC=0 FL_CPXRES=0 FL_ASLIFT=1 RL=Real:"1" RX=Real:"3"

; Cubic
In:  AM=DEG FL_ASLIFT=0 FL_CPXRES=0 RY=Real:"3" RX=Real:"-10"
Out: EC=0 FL_CPXRES=0 FL_ASLIFT=1 RL=Real:"-10" RX=Real:"-7960"

In:  AM=DEG FL_ASLIFT=0 FL_CPXRES=0 RY=Real:"3" RX=Real:"-2"
Out: EC=0 FL_CPXRES=0 FL_ASLIFT=1 RL=Real:"-2" RX=Real:"-56"

In:  AM=DEG FL_ASLIFT=0 FL_CPXRES=0 RY=Real:"3" RX=Real:"-0.5"
Out: EC=0 FL_CPXRES=0 FL_ASLIFT=1 RL=Real:"-0.5" RX=Real:"1"

In:  AM=DEG FL_ASLIFT=0 FL_CPXRES=0 RY=Real:"3" RX=Real:"0"
Out: EC=0 FL_CPXRES=0 FL_ASLIFT=1 RL=Real:"0" RX=Real:"0"

In:  AM=DEG FL_ASLIFT=0 FL_CPXRES=0 RY=Real:"3" RX=Real:"0.1"
Out: EC=0 FL_CPXRES=0 FL_ASLIFT=1 RL=Real:"0.1" RX=Real:"-0.392"

In:  AM=DEG FL_ASLIFT=0 FL_CPXRES=0 RY=Real:"3" RX=Real:"1"
Out: EC=0 FL_CPXRES=0 FL_ASLIFT=1 RL=Real:"1" RX=Real:"4"

; Quartic
In:  AM=DEG FL_ASLIFT=0 FL_CPXRES=0 RY=Real:"4" RX=Real:"-10"
Out: EC=0 FL_CPXRES=0 FL_ASLIFT=1 RL=Real:"-10" RX=Real:"158801"

In:  AM=DEG FL_ASLIFT=0 FL_CPXRES=0 RY=Real:"4" RX=Real:"-2"
Out: EC=0 FL_CPXRES=0 FL_ASLIFT=1 RL=Real:"-2" RX=Real:"209"

In:  AM=DEG FL_ASLIFT=0 FL_CPXRES=0 RY=Real:"4" RX=Real:"-0.5"
Out: EC=0 FL_CPXRES=0 FL_ASLIFT=1 RL=Real:"-0.5" RX=Real:"-1"

In:  AM=DEG FL_ASLIFT=0 FL_CPXRES=0 RY=Real:"4" RX=Real:"0"
Out: EC=0 FL_CPXRES=0 FL_ASLIFT=1 RL=Real:"0" RX=Real:"1"

In:  AM=DEG FL_ASLIFT=0 FL_CPXRES=0 RY=Real:"4" RX=Real:"0.1"
Out: EC=0 FL_CPXRES=0 FL_ASLIFT=1 RL=Real:"0.1" RX=Real:"0.8816"

In:  AM=DEG FL_ASLIFT=0 FL_CPXRES=0 RY=Real:"4" RX=Real:"1"
Out: EC=0 FL_CPXRES=0 FL_ASLIFT=1 RL=Real:"1" RX=Real:"5"



;=======================================
; Un(Complex) --> Error24
;=======================================
