;*************************************************************
;*************************************************************
;**                                                         **
;**               QF of chi-square distribution             **
;**                                                         **
;*************************************************************
;*************************************************************
In: FL_SPCRES=0 FL_CPXRES=0 SD=0 RMODE=0 IM=2compl SS=4 WS=64
Func: fnChi2I



;=======================================
; Chi2I(Long Integer) --> Real
;=======================================
In:  AM=DEG FL_ASLIFT=0 FL_CPXRES=0 RM=LonI:"1" RX=Real:"0.1"
Out: EC=0 FL_CPXRES=0 FL_ASLIFT=1 RL=Real:"0.1" RX=Real:"0.01579077409343122486815523826460977"

In:  AM=DEG FL_ASLIFT=0 FL_CPXRES=0 RM=LonI:"1" RX=Real:"0.5"
Out: EC=0 FL_CPXRES=0 FL_ASLIFT=1 RL=Real:"0.5" RX=Real:"0.4549364231195727519425166469796494"

In:  AM=DEG FL_ASLIFT=0 FL_CPXRES=0 RM=LonI:"1" RX=Real:"0.9"
Out: EC=0 FL_CPXRES=0 FL_ASLIFT=1 RL=Real:"0.9" RX=Real:"2.705543454095414567073032272382736"


In:  AM=DEG FL_ASLIFT=0 FL_CPXRES=0 RM=LonI:"2" RX=Real:"0.1"
Out: EC=0 FL_CPXRES=0 FL_ASLIFT=1 RL=Real:"0.1" RX=Real:"0.2107210313156526024550019616786256"

In:  AM=DEG FL_ASLIFT=0 FL_CPXRES=0 RM=LonI:"2" RX=Real:"0.5"
Out: EC=0 FL_CPXRES=0 FL_ASLIFT=1 RL=Real:"0.5" RX=Real:"1.386294361119890618834464242916353"

In:  AM=DEG FL_ASLIFT=0 FL_CPXRES=0 RM=LonI:"2" RX=Real:"0.9"
Out: EC=0 FL_CPXRES=0 FL_ASLIFT=1 RL=Real:"0.9" RX=Real:"4.605170185988091368035982909368728"


In:  AM=DEG FL_ASLIFT=0 FL_CPXRES=0 RM=LonI:"3" RX=Real:"0.1"
Out: EC=0 FL_CPXRES=0 FL_ASLIFT=1 RL=Real:"0.1" RX=Real:"0.5843743741551832561590073112017701"

In:  AM=DEG FL_ASLIFT=0 FL_CPXRES=0 RM=LonI:"3" RX=Real:"0.5"
Out: EC=0 FL_CPXRES=0 FL_ASLIFT=1 RL=Real:"0.5" RX=Real:"2.365973884375338266139162601265045"

In:  AM=DEG FL_ASLIFT=0 FL_CPXRES=0 RM=LonI:"3" RX=Real:"0.9"
Out: EC=0 FL_CPXRES=0 FL_ASLIFT=1 RL=Real:"0.9" RX=Real:"6.251388631170323196401316360643127"


In:  AM=DEG FL_ASLIFT=0 FL_CPXRES=0 RM=LonI:"5" RX=Real:"0.1"
Out: EC=0 FL_CPXRES=0 FL_ASLIFT=1 RL=Real:"0.1" RX=Real:"1.610307986962322996736008958555193"

In:  AM=DEG FL_ASLIFT=0 FL_CPXRES=0 RM=LonI:"5" RX=Real:"0.5"
Out: EC=0 FL_CPXRES=0 FL_ASLIFT=1 RL=Real:"0.5" RX=Real:"4.351460191095527317158107776624575"

In:  AM=DEG FL_ASLIFT=0 FL_CPXRES=0 RM=LonI:"5" RX=Real:"0.9"
Out: EC=0 FL_CPXRES=0 FL_ASLIFT=1 RL=Real:"0.9" RX=Real:"9.236356899781118451435930911834589"



;=======================================
; Chi2I(Time) --> Error24
;=======================================



;=======================================
; Chi2I(Date) --> Error24
;=======================================



;=======================================
; Chi2I(String) --> Error24
;=======================================
In:  FL_ASLIFT=0 RX=Stri:"String test"
Out: EC=24 FL_ASLIFT=0 RX=Stri:"String test"



;=======================================
; Chi2I(Real Matrix) --> Error24
;=======================================



;=======================================
; Chi2I(Complex Matrix) --> Error24
;=======================================



;=======================================
; Chi2I(Short Integer) --> Error24
;=======================================



;=======================================
; Chi2I(Real) --> Real
;=======================================
In:  AM=DEG FL_ASLIFT=0 FL_CPXRES=0 RM=Real:"1" RX=Real:"0.1"
Out: EC=0 FL_CPXRES=0 FL_ASLIFT=1 RL=Real:"0.1" RX=Real:"0.01579077409343122486815523826460977"

In:  AM=DEG FL_ASLIFT=0 FL_CPXRES=0 RM=Real:"1" RX=Real:"0.5"
Out: EC=0 FL_CPXRES=0 FL_ASLIFT=1 RL=Real:"0.5" RX=Real:"0.4549364231195727519425166469796494"

In:  AM=DEG FL_ASLIFT=0 FL_CPXRES=0 RM=Real:"1" RX=Real:"0.9"
Out: EC=0 FL_CPXRES=0 FL_ASLIFT=1 RL=Real:"0.9" RX=Real:"2.705543454095414567073032272382736"


In:  AM=DEG FL_ASLIFT=0 FL_CPXRES=0 RM=Real:"2" RX=Real:"0.1"
Out: EC=0 FL_CPXRES=0 FL_ASLIFT=1 RL=Real:"0.1" RX=Real:"0.2107210313156526024550019616786256"

In:  AM=DEG FL_ASLIFT=0 FL_CPXRES=0 RM=Real:"2" RX=Real:"0.5"
Out: EC=0 FL_CPXRES=0 FL_ASLIFT=1 RL=Real:"0.5" RX=Real:"1.386294361119890618834464242916353"

In:  AM=DEG FL_ASLIFT=0 FL_CPXRES=0 RM=Real:"2" RX=Real:"0.9"
Out: EC=0 FL_CPXRES=0 FL_ASLIFT=1 RL=Real:"0.9" RX=Real:"4.605170185988091368035982909368728"


In:  AM=DEG FL_ASLIFT=0 FL_CPXRES=0 RM=Real:"3" RX=Real:"0.1"
Out: EC=0 FL_CPXRES=0 FL_ASLIFT=1 RL=Real:"0.1" RX=Real:"0.5843743741551832561590073112017701"

In:  AM=DEG FL_ASLIFT=0 FL_CPXRES=0 RM=Real:"3" RX=Real:"0.5"
Out: EC=0 FL_CPXRES=0 FL_ASLIFT=1 RL=Real:"0.5" RX=Real:"2.365973884375338266139162601265045"

In:  AM=DEG FL_ASLIFT=0 FL_CPXRES=0 RM=Real:"3" RX=Real:"0.9"
Out: EC=0 FL_CPXRES=0 FL_ASLIFT=1 RL=Real:"0.9" RX=Real:"6.251388631170323196401316360643127"


In:  AM=DEG FL_ASLIFT=0 FL_CPXRES=0 RM=Real:"5" RX=Real:"0.1"
Out: EC=0 FL_CPXRES=0 FL_ASLIFT=1 RL=Real:"0.1" RX=Real:"1.610307986962322996736008958555193"

In:  AM=DEG FL_ASLIFT=0 FL_CPXRES=0 RM=Real:"5" RX=Real:"0.5"
Out: EC=0 FL_CPXRES=0 FL_ASLIFT=1 RL=Real:"0.5" RX=Real:"4.351460191095527317158107776624575"

In:  AM=DEG FL_ASLIFT=0 FL_CPXRES=0 RM=Real:"5" RX=Real:"0.9"
Out: EC=0 FL_CPXRES=0 FL_ASLIFT=1 RL=Real:"0.9" RX=Real:"9.236356899781118451435930911834589"



;=======================================
; Chi2I(Complex) --> Error24
;=======================================
