;*************************************************************
;*************************************************************
;**                                                         **
;**                        Cross                            **
;**                                                         **
;*************************************************************
;*************************************************************
In: FL_SPCRES=0 FL_CPXRES=0 SD=0 RMODE=0 IM=2compl SS=4 WS=64
Func: fnCross

;=======================================
; Cross(Complex, Complex) --> Real
;=======================================
In:  FL_ASLIFT=1 FL_CPXRES=1 RY=Cplx:"123.456 i +1.1234" RX=Cplx:"456.123 i +11.38"
Out: EC=0 FL_CPXRES=1 FL_ASLIFT=1 RL=Cplx:"456.123 i +11.38" RX=Real:"892.5207018"

;=======================================
; Cross(Real, Complex) --> Real
;=======================================
In:  FL_ASLIFT=1 FL_CPXRES=1 RY=Real:"123.456" RX=Cplx:"456.123 i +11.38"
Out: EC=0 FL_CPXRES=1 FL_ASLIFT=1 RL=Cplx:"456.123 i +11.38" RX=Real:"1404.929280000000000000000000000000"

;=======================================
; Cross(Complex, Real) --> Real
;=======================================
In:  FL_ASLIFT=1 FL_CPXRES=1 RY=Cplx:"123.456 i +1.1234" RX=Real:"456.123"
Out: EC=0 FL_CPXRES=1 FL_ASLIFT=1 RL=Real:"456.123" RX=Real:"-512.4085782000000000000000000000000"

;=======================================
; Cross(Complex, Long Integer) --> Real
;=======================================
In:  FL_ASLIFT=1 FL_CPXRES=1 RY=Cplx:"123.456 i +1.1234" RX=LonI:"456"
Out: EC=0 FL_CPXRES=1 FL_ASLIFT=1 RL=LonI:"456" RX=Real:"-512.2704000000000000000000000000000"

;=======================================
; Cross(Long Integer, Complex) --> Real
;=======================================
In:  FL_ASLIFT=1 FL_CPXRES=1 RY=LonI:"123" RX=Cplx:"456.123 i +11.38"
Out: EC=0 FL_CPXRES=1 FL_ASLIFT=1 RL=Cplx:"456.123 i +11.38" RX=Real:"1399.740000000000000000000000000000"

;=======================================
; Cross(Complex, Short Integer) --> Real
;=======================================
In:  FL_ASLIFT=1 FL_CPXRES=1 RY=Cplx:"123.456 i +1.1234" RX=ShoI:"456#10"
Out: EC=0 FL_CPXRES=1 FL_ASLIFT=1 RL=ShoI:"456#10" RX=Real:"-512.2704000000000000000000000000000"

;=======================================
; Cross(Short Integer, Complex) --> Real
;=======================================
In:  FL_ASLIFT=1 FL_CPXRES=1 RY=ShoI:"123#10" RX=Cplx:"456.123 i +11.38"
Out: EC=0 FL_CPXRES=1 FL_ASLIFT=1 RL=Cplx:"456.123 i +11.38" RX=Real:"1399.740000000000000000000000000000"

;=======================================
; Cross(Real Matrix, Real Matrix) --> Real Matrix
;=======================================
In:  FL_ASLIFT=0 FL_CPXRES=0 RY=ReMa:"M1,2[1,3]" RX=ReMa:"M2,1[-1,1]"
Out: EC=0 FL_CPXRES=0 FL_ASLIFT=1 RL=ReMa:"M2,1[-1,1]" RX=ReMa:"M1,3[0,0,4]"

In:  FL_ASLIFT=0 FL_CPXRES=0 RY=ReMa:"M3,1[1,3,5]" RX=ReMa:"M1,3[2,4,6]"
Out: EC=0 FL_CPXRES=0 FL_ASLIFT=1 RL=ReMa:"M1,3[2,4,6]" RX=ReMa:"M1,3[-2,4,-2]"

In:  FL_ASLIFT=0 FL_CPXRES=0 RY=ReMa:"M4,1[1,3,5,7]" RX=ReMa:"M4,1[2,4,6,8]"
Out: EC=21 FL_CPXRES=0 FL_ASLIFT=0 RY=ReMa:"M4,1[1,3,5,7]" RX=ReMa:"M4,1[2,4,6,8]"

In:  FL_ASLIFT=0 FL_CPXRES=0 RY=ReMa:"M2,3[1,2,3,4,5,6]" RX=ReMa:"M2,3[1,2,3,4,5,6]"
Out: EC=21 FL_CPXRES=0 FL_ASLIFT=0 RY=ReMa:"M2,3[1,2,3,4,5,6]" RX=ReMa:"M2,3[1,2,3,4,5,6]"

;=======================================
; Cross(Real Matrix, Complex Matrix) --> Complex Matrix
;=======================================
In:  FL_ASLIFT=0 FL_CPXRES=0 RY=ReMa:"M3,1[1,5,9]" RX=CxMa:"M1,3[3i4,7i8,11i12]"
Out: EC=0 FL_CPXRES=1 FL_ASLIFT=1 RL=CxMa:"M1,3[3i4,7i8,11i12]" RX=CxMa:"M1,3[-8i-12,16i24,-8i-12]"

;=======================================
; Cross(Complex Matrix, Real Matrix) --> Complex Matrix
;=======================================
In:  FL_ASLIFT=0 FL_CPXRES=0 RY=CxMa:"M3,1[1i2,5i6,9i10]" RX=ReMa:"M1,3[3,7,11]"
Out: EC=0 FL_CPXRES=1 FL_ASLIFT=1 RL=ReMa:"M1,3[3,7,11]" RX=CxMa:"M1,3[-8i-4,16i8,-8i-4]"

;=======================================
; Cross(Complex Matrix, Complex Matrix) --> Complex Matrix
;=======================================
In:  FL_ASLIFT=0 FL_CPXRES=0 RY=CxMa:"M1,2[1i2,5i6]" RX=CxMa:"M2,1[3i4,7i8]"
Out: EC=0 FL_CPXRES=1 FL_ASLIFT=1 RL=CxMa:"M2,1[3i4,7i8]" RX=CxMa:"M1,3[0,0,0i-16]"

In:  FL_ASLIFT=0 FL_CPXRES=0 RY=CxMa:"M3,1[1i2,5i6,9i10]" RX=CxMa:"M1,3[3i4,7i8,11i12]"
Out: EC=0 FL_CPXRES=1 FL_ASLIFT=1 RL=CxMa:"M1,3[3i4,7i8,11i12]" RX=CxMa:"M1,3[0i-16,0i32,0i-16]"

In:  FL_ASLIFT=0 FL_CPXRES=0 RY=CxMa:"M4,1[1i2,5i6,9i10,13i14]" RX=CxMa:"M4,1[3i4,7i8,11i12,15i16]"
Out: EC=21 FL_CPXRES=0 FL_ASLIFT=0 RY=CxMa:"M4,1[1i2,5i6,9i10,13i14]" RX=CxMa:"M4,1[3i4,7i8,11i12,15i16]"

In:  FL_ASLIFT=0 FL_CPXRES=0 RY=CxMa:"M2,3[1i2,5i6,9i10,13i14,17i18,21i22]" RX=CxMa:"M2,3[3i4,7i8,11i12,15i16,19i20,23i24]"
Out: EC=21 FL_CPXRES=0 FL_ASLIFT=0 RY=CxMa:"M2,3[1i2,5i6,9i10,13i14,17i18,21i22]" RX=CxMa:"M2,3[3i4,7i8,11i12,15i16,19i20,23i24]"

;=======================================
; Error case: ERROR_INVALID_DATA_INPUT_FOR_OP
;=======================================
In:  FL_ASLIFT=0  RY=LonI:"10" RX=LonI:"450"
Out: EC=0 FL_ASLIFT=1 RX=Real:"0" RL=LonI:"450"

In:  FL_ASLIFT=0  RY=ShoI:"10#10" RX=LonI:"450"
Out: EC=0 FL_ASLIFT=1 RX=Real:"0" RL=LonI:"450"

In:  FL_ASLIFT=0  RY=LonI:"10" RX=ShoI:"20#10"
Out: EC=0 FL_ASLIFT=1 RX=Real:"0" RL=ShoI:"20#10"

In:  FL_ASLIFT=0  RY=ShoI:"10#10" RX=ShoI:"20#10"
Out: EC=0 FL_ASLIFT=1 RX=Real:"0" RL=ShoI:"20#10"

In:  FL_ASLIFT=0  RY=ShoI:"10#10" RX=Stri:"ABC"
Out: EC=24 FL_ASLIFT=0 RY=ShoI:"10#10" RX=Stri:"ABC"

In:  FL_ASLIFT=0  RY=Real:"10.0" RX=Stri:"ABC"
Out: EC=24 FL_ASLIFT=0 RY=Real:"10.0" RX=Stri:"ABC"

In:  FL_ASLIFT=0  RY=Real:"10.0" RX=Real:"100.0"
Out: EC=0 FL_ASLIFT=1 RX=Real:"0" RL=Real:"100.0"

In:  FL_ASLIFT=0  RY=Real:"10.0" RX=LonI:"100"
Out: EC=0 FL_ASLIFT=1 RX=Real:"0" RL=LonI:"100"

In:  FL_ASLIFT=0  RY=Real:"10.0" RX=ShoI:"100#10"
Out: EC=0 FL_ASLIFT=1 RX=Real:"0" RL=ShoI:"100#10"

In:  FL_ASLIFT=0  RY=LonI:"10" RX=Real:"100.0"
Out: EC=0 FL_ASLIFT=1 RX=Real:"0" RL=Real:"100.0"

In:  FL_ASLIFT=0  RY=ShoI:"10#10" RX=Real:"100.0"
Out: EC=0 FL_ASLIFT=1 RX=Real:"0" RL=Real:"100.0"
