;*************************************************************
;*************************************************************
;**                                                         **
;**                COMPLEX MATRIX / ...                     **
;**                ... / COMPLEX MATRIX                     **
;**                                                         **
;*************************************************************
;*************************************************************
In: FL_SPCRES=0 FL_CPXRES=0 SD=0 RMODE=0 IM=2compl SS=4 WS=64
Func: fnDivide



;==================================================================
; Complex Matrix / Long Integer   see in division_longInteger.txt
; Complex Matrix / Time           see in division_time.txt
; Complex Matrix / Date           see in division_date.txt
; Complex Matrix / String         see in division_string.txt
; Complex Matrix / Real Matrix    see in division_realMatrix.txt
;==================================================================



;=======================================
; Complex Matrix / Complex Matrix
;=======================================
In: FL_ASLIFT=0 FL_CPXRES=0 IM=2COMPL RY=CxMa:"M3,2[1i2,3i4,5i6,7i8,9i10,11i12]" RX=CxMa:"M2,2[13i14,15i16,17i18,19i20]"
Out: EC=0 FL_CPXRES=1 FL_ASLIFT=1 RL=CxMa:"M2,2[13i14,15i16,17i18,19i20]" RX=CxMa:"M3,2[4i0,-3i0,3i0,-2i0,2i0,-1i0]"

In: FL_ASLIFT=0 FL_CPXRES=0 IM=2COMPL RY=CxMa:"M3,2[1i2,3i4,5i6,7i8,9i10,11i12]" RX=CxMa:"M2,4[13i14,15i16,17i18,19i20,21i22,23i24,25i26,27i28]"
Out: EC=21 FL_CPXRES=0 FL_ASLIFT=0 RY=CxMa:"M3,2[1i2,3i4,5i6,7i8,9i10,11i12]" RX=CxMa:"M2,4[13i14,15i16,17i18,19i20,21i22,23i24,25i26,27i28]"

In: FL_ASLIFT=0 FL_CPXRES=0 IM=2COMPL RY=CxMa:"M3,2[1i2,3i4,5i6,7i8,9i10,11i12]" RX=CxMa:"M2,2[1i2,1i3,2i4,2i6]"
Out: EC=22 FL_CPXRES=0 FL_ASLIFT=0 RY=CxMa:"M3,2[1i2,3i4,5i6,7i8,9i10,11i12]" RX=CxMa:"M2,2[1i2,1i3,2i4,2i6]"



;=======================================
; Complex Matrix / Short Integer
;=======================================
In: FL_ASLIFT=0 FL_CPXRES=0 IM=2COMPL RY=CxMa:"M3,2[1i2,3i4,5i6,7i8,9i10,11i12]" RX=ShoI:"1101#2"
Out: EC=0 FL_CPXRES=1 FL_ASLIFT=1 RL=ShoI:"1101#2" RX=CxMa:"M3,2[0.076923076923076923076923076923076923077i0.153846153846153846153846153846153846154, 0.230769230769230769230769230769230769231i0.307692307692307692307692307692307692308, 0.384615384615384615384615384615384615385i0.461538461538461538461538461538461538462, 0.538461538461538461538461538461538461538i0.615384615384615384615384615384615384615, 0.692307692307692307692307692307692307692i0.769230769230769230769230769230769230769, 0.846153846153846153846153846153846153846i0.923076923076923076923076923076923076923]"

;=======================================
; Short Integer / Complex Matrix
;=======================================
In: FL_ASLIFT=0 FL_CPXRES=0 IM=2COMPL RY=ShoI:"1101#2" RX=CxMa:"M3,2[1i2,3i4,5i6,7i8,9i10,11i12]"
Out: EC=0 FL_CPXRES=1 FL_ASLIFT=1 RL=CxMa:"M3,2[1i2,3i4,5i6,7i8,9i10,11i12]" RX=CxMa:"M3,2[2.6i-5.2, 1.56i-2.08, 1.06557377049180327868852459016393442623i-1.27868852459016393442622950819672131148, 0.805309734513274336283185840707964601770i-0.920353982300884955752212389380530973451, 0.646408839779005524861878453038674033149i-0.718232044198895027624309392265193370166, 0.539622641509433962264150943396226415094i-0.588679245283018867924528301886792452830]"



;=======================================
; Complex Matrix / Real
;=======================================
In: FL_ASLIFT=0 FL_CPXRES=0 IM=2COMPL RY=CxMa:"M3,2[1i2,3i4,5i6,7i8,9i10,11i12]" RX=Real:"13"
Out: EC=0 FL_CPXRES=1 FL_ASLIFT=1 RL=Real:"13" RX=CxMa:"M3,2[0.076923076923076923076923076923076923077i0.153846153846153846153846153846153846154, 0.230769230769230769230769230769230769231i0.307692307692307692307692307692307692308, 0.384615384615384615384615384615384615385i0.461538461538461538461538461538461538462, 0.538461538461538461538461538461538461538i0.615384615384615384615384615384615384615, 0.692307692307692307692307692307692307692i0.769230769230769230769230769230769230769, 0.846153846153846153846153846153846153846i0.923076923076923076923076923076923076923]"

In: FL_ASLIFT=0 FL_CPXRES=0 IM=2COMPL RY=CxMa:"M3,2[1i2,3i4,5i6,7i8,9i10,11i12]" RX=Real:"13":Deg
Out: EC=0 FL_CPXRES=1 FL_ASLIFT=1 RL=Real:"13":Deg RX=CxMa:"M3,2[0.076923076923076923076923076923076923077i0.153846153846153846153846153846153846154, 0.230769230769230769230769230769230769231i0.307692307692307692307692307692307692308, 0.384615384615384615384615384615384615385i0.461538461538461538461538461538461538462, 0.538461538461538461538461538461538461538i0.615384615384615384615384615384615384615, 0.692307692307692307692307692307692307692i0.769230769230769230769230769230769230769, 0.846153846153846153846153846153846153846i0.923076923076923076923076923076923076923]"

In: FL_ASLIFT=0 FL_CPXRES=0 IM=2COMPL RY=CxMa:"M3,2[1i2,3i4,5i6,7i8,9i10,11i12]" RX=Real:"13":MultPi
Out: EC=0 FL_CPXRES=1 FL_ASLIFT=1 RL=Real:"13":MultPi RX=CxMa:"M3,2[0.076923076923076923076923076923076923077i0.153846153846153846153846153846153846154, 0.230769230769230769230769230769230769231i0.307692307692307692307692307692307692308, 0.384615384615384615384615384615384615385i0.461538461538461538461538461538461538462, 0.538461538461538461538461538461538461538i0.615384615384615384615384615384615384615, 0.692307692307692307692307692307692307692i0.769230769230769230769230769230769230769, 0.846153846153846153846153846153846153846i0.923076923076923076923076923076923076923]"

;=======================================
; Real / Complex Matrix
;=======================================
In: FL_ASLIFT=0 FL_CPXRES=0 IM=2COMPL RY=Real:"13" RX=CxMa:"M3,2[1i2,3i4,5i6,7i8,9i10,11i12]"
Out: EC=0 FL_CPXRES=1 FL_ASLIFT=1 RL=CxMa:"M3,2[1i2,3i4,5i6,7i8,9i10,11i12]" RX=CxMa:"M3,2[2.6i-5.2, 1.56i-2.08, 1.06557377049180327868852459016393442623i-1.27868852459016393442622950819672131148, 0.805309734513274336283185840707964601770i-0.920353982300884955752212389380530973451, 0.646408839779005524861878453038674033149i-0.718232044198895027624309392265193370166, 0.539622641509433962264150943396226415094i-0.588679245283018867924528301886792452830]"

In: FL_ASLIFT=0 FL_CPXRES=0 IM=2COMPL RY=Real:"13":Deg RX=CxMa:"M3,2[1i2,3i4,5i6,7i8,9i10,11i12]"
Out: EC=0 FL_CPXRES=1 FL_ASLIFT=1 RL=CxMa:"M3,2[1i2,3i4,5i6,7i8,9i10,11i12]" RX=CxMa:"M3,2[2.6i-5.2, 1.56i-2.08, 1.06557377049180327868852459016393442623i-1.27868852459016393442622950819672131148, 0.805309734513274336283185840707964601770i-0.920353982300884955752212389380530973451, 0.646408839779005524861878453038674033149i-0.718232044198895027624309392265193370166, 0.539622641509433962264150943396226415094i-0.588679245283018867924528301886792452830]"

In: FL_ASLIFT=0 FL_CPXRES=0 IM=2COMPL RY=Real:"13":MultPi RX=CxMa:"M3,2[1i2,3i4,5i6,7i8,9i10,11i12]"
Out: EC=0 FL_CPXRES=1 FL_ASLIFT=1 RL=CxMa:"M3,2[1i2,3i4,5i6,7i8,9i10,11i12]" RX=CxMa:"M3,2[2.6i-5.2, 1.56i-2.08, 1.06557377049180327868852459016393442623i-1.27868852459016393442622950819672131148, 0.805309734513274336283185840707964601770i-0.920353982300884955752212389380530973451, 0.646408839779005524861878453038674033149i-0.718232044198895027624309392265193370166, 0.539622641509433962264150943396226415094i-0.588679245283018867924528301886792452830]"



;=======================================
; Complex Matrix / Complex
;=======================================
In: FL_ASLIFT=0 FL_CPXRES=0 IM=2COMPL RY=CxMa:"M3,2[1i2,3i4,5i6,7i8,9i10,11i12]" RX=Cplx:"13i14"
Out: EC=0 FL_CPXRES=1 FL_ASLIFT=1 RL=Cplx:"13i14" RX=CxMa:"M3,2[0.1123287671232876712328767123287671232877i0.0328767123287671232876712328767123287671, 0.260273972602739726027397260273972602740i0.027397260273972602739726027397260273973, 0.408219178082191780821917808219178082192i0.021917808219178082191780821917808219178, 0.556164383561643835616438356164383561644i0.016438356164383561643835616438356164384, 0.704109589041095890410958904109589041096i0.010958904109589041095890410958904109589, 0.852054794520547945205479452054794520548i0.005479452054794520547945205479452054795]"

;=======================================
; Complex / Complex Matrix
;=======================================
In: FL_ASLIFT=0 FL_CPXRES=0 IM=2COMPL RY=Cplx:"13i14" RX=CxMa:"M3,2[1i2,3i4,5i6,7i8,9i10,11i12]"
Out: EC=0 FL_CPXRES=1 FL_ASLIFT=1 RL=CxMa:"M3,2[1i2,3i4,5i6,7i8,9i10,11i12]" RX=CxMa:"M3,2[8.2i-2.4, 3.8i-0.4, 2.44262295081967213114754098360655737705i-0.13114754098360655737704918032786885246, 1.79646017699115044247787610619469026549i-0.05309734513274336283185840707964601770, 1.41988950276243093922651933701657458564i-0.02209944751381215469613259668508287293, 1.173584905660377358490566037735849056604i-0.007547169811320754716981132075471698113]"
