;*************************************************************
;*************************************************************
;**                                                         **
;**                  REAL MATRIX / ...                      **
;**                  ... / REAL MATRIX                      **
;**                                                         **
;*************************************************************
;*************************************************************
In: FL_SPCRES=0 FL_CPXRES=0 SD=0 RMODE=0 IM=2compl SS=4 WS=64
Func: fnDivide



;==================================================================
; Real Matrix / Long Integer  see in division_longInteger.txt
; Real Matrix / Time          see in division_time.txt
; Real Matrix / Date          see in division_date.txt
; Real Matrix / String        see in division_string.txt
;==================================================================



;=======================================
; Real Matrix / Real Matrix
;=======================================
In: FL_ASLIFT=0 FL_CPXRES=0 IM=2COMPL RY=ReMa:"M3,2[1,2,3,4,5,6]" RX=ReMa:"M2,2[7,8,9,10]"
Out: EC=0 FL_CPXRES=0 FL_ASLIFT=1 RL=ReMa:"M2,2[7,8,9,10]" RX=ReMa:"M3,2[4,-3,3,-2,2,-1]"

In: FL_ASLIFT=0 FL_CPXRES=0 IM=2COMPL RY=ReMa:"M3,2[1,2,3,4,5,6]" RX=ReMa:"M2,4[7,8,9,10,11,12,13,14]"
Out: EC=21 FL_CPXRES=0 FL_ASLIFT=0 RY=ReMa:"M3,2[1,2,3,4,5,6]" RX=ReMa:"M2,4[7,8,9,10,11,12,13,14]"

In: FL_ASLIFT=0 FL_CPXRES=0 IM=2COMPL RY=ReMa:"M3,2[1,2,3,4,5,6]" RX=ReMa:"M2,2[1,2,2,4]"
Out: EC=22 FL_CPXRES=0 FL_ASLIFT=0 RY=ReMa:"M3,2[1,2,3,4,5,6]" RX=ReMa:"M2,2[1,2,2,4]"



;=======================================
; Real Matrix / Complex Matrix
;=======================================
In: FL_ASLIFT=0 FL_CPXRES=0 IM=2COMPL RY=ReMa:"M3,2[1,2,3,4,5,6]" RX=CxMa:"M2,2[7i8,9i10,11i12,13i14]"
Out: EC=0 FL_CPXRES=1 FL_ASLIFT=1 RL=CxMa:"M2,2[7i8,9i10,11i12,13i14]" RX=CxMa:"M3,2[0.625i-0.5625,-0.375i0.3125,0.375i-0.3125,-0.125i0.0625,0.125i-0.0625,0.125i-0.1875]"

In: FL_ASLIFT=0 FL_CPXRES=0 IM=2COMPL RY=ReMa:"M3,2[1,2,3,4,5,6]" RX=CxMa:"M2,4[7i8,9i10,11i12,13i14,15i16,17i18,19i20,21i22]"
Out: EC=21 FL_CPXRES=0 FL_ASLIFT=0 RY=ReMa:"M3,2[1,2,3,4,5,6]" RX=CxMa:"M2,4[7i8,9i10,11i12,13i14,15i16,17i18,19i20,21i22]"

In: FL_ASLIFT=0 FL_CPXRES=0 IM=2COMPL RY=ReMa:"M3,2[1,2,3,4,5,6]" RX=CxMa:"M2,2[1i2,1i3,2i4,2i6]"
Out: EC=22 FL_CPXRES=0 FL_ASLIFT=0 RY=ReMa:"M3,2[1,2,3,4,5,6]" RX=CxMa:"M2,2[1i2,1i3,2i4,2i6]"

;=======================================
; Complex Matrix / Real Matrix
;=======================================
In: FL_ASLIFT=0 FL_CPXRES=0 IM=2COMPL RY=CxMa:"M3,2[1i2,3i4,5i6,7i8,9i10,11i12]" RX=ReMa:"M2,2[13,14,15,16]"
Out: EC=0 FL_CPXRES=1 FL_ASLIFT=1 RL=ReMa:"M2,2[13,14,15,16]" RX=CxMa:"M3,2[14.5i14,-12.5i-12,12.5i12,-10.5i-10,10.5i10,-8.5i-8]"

In: FL_ASLIFT=0 FL_CPXRES=0 IM=2COMPL RY=CxMa:"M3,2[1i2,3i4,5i6,7i8,9i10,11i12]" RX=ReMa:"M2,4[13,14,15,16,17,18,19,20]"
Out: EC=21 FL_CPXRES=0 FL_ASLIFT=0 RY=CxMa:"M3,2[1i2,3i4,5i6,7i8,9i10,11i12]" RX=ReMa:"M2,4[13,14,15,16,17,18,19,20]"

In: FL_ASLIFT=0 FL_CPXRES=0 IM=2COMPL RY=CxMa:"M3,2[1i2,3i4,5i6,7i8,9i10,11i12]" RX=ReMa:"M2,2[1,2,2,4]"
Out: EC=22 FL_CPXRES=0 FL_ASLIFT=0 RY=CxMa:"M3,2[1i2,3i4,5i6,7i8,9i10,11i12]" RX=ReMa:"M2,2[1,2,2,4]"



;=======================================
; Real Matrix / Short Integer
;=======================================
In: FL_ASLIFT=0 FL_CPXRES=0 IM=2COMPL RY=ReMa:"M3,2[1,2,3,4,5,6]" RX=ShoI:"111#2"
Out: EC=0 FL_CPXRES=0 FL_ASLIFT=1 RL=ShoI:"111#2" RX=ReMa:"M3,2[0.142857142857142857142857142857142857,0.285714285714285714285714285714285714,0.428571428571428571428571428571428571,0.571428571428571428571428571428571428,0.714285714285714285714285714285714285,0.857142857142857142857142857142857142]"

In: FL_ASLIFT=0 FL_CPXRES=0 FL_SPCRES=1 IM=2COMPL RY=ReMa:"M3,2[1,2,3,4,5,6]" RX=ShoI:"0#9"
Out: EC=0 FL_CPXRES=0 FL_ASLIFT=1 RL=ShoI:"0#9" RX=ReMa:"M3,2[inf,inf,inf,inf,inf,inf]"

In: FL_ASLIFT=0 FL_CPXRES=0 FL_SPCRES=0 IM=2COMPL RY=ReMa:"M3,2[1,2,3,4,5,6]" RX=ShoI:"0#9"
Out: EC=1 FL_CPXRES=0 FL_ASLIFT=0 RY=ReMa:"M3,2[1,2,3,4,5,6]" RX=ShoI:"0#9"

;=======================================
; Short Integer / Real Matrix
;=======================================
In: FL_ASLIFT=0 FL_CPXRES=0 IM=2COMPL RY=ShoI:"111#2" RX=ReMa:"M3,2[1,2,3,4,5,6]"
Out: EC=0 FL_CPXRES=0 FL_ASLIFT=1 RL=ReMa:"M3,2[1,2,3,4,5,6]" RX=ReMa:"M3,2[7,3.5,2.333333333333333333333333333333333333,1.75,1.4,1.16666666666666666666666666666666666667]"

In: FL_ASLIFT=0 FL_CPXRES=0 FL_SPCRES=1 IM=2COMPL RY=ShoI:"111#2" RX=ReMa:"M3,2[0,1,2,3,4,5]"
Out: EC=0 FL_CPXRES=0 FL_ASLIFT=1 RL=ReMa:"M3,2[0,1,2,3,4,5]" RX=ReMa:"M3,2[inf,7,3.5,2.333333333333333333333333333333333333,1.75,1.4]"

In: FL_ASLIFT=0 FL_CPXRES=0 FL_SPCRES=0 IM=2COMPL RY=ShoI:"111#2" RX=ReMa:"M3,2[0,1,2,3,4,5]"
Out: EC=1 FL_CPXRES=0 FL_ASLIFT=0 RY=ShoI:"111#2" RX=ReMa:"M3,2[0,1,2,3,4,5]"



;=======================================
; Real Matrix / Real
;=======================================
In: FL_ASLIFT=0 FL_CPXRES=0 IM=2COMPL RY=ReMa:"M3,2[1,2,3,4,5,6]" RX=Real:"7"
Out: EC=0 FL_CPXRES=0 FL_ASLIFT=1 RL=Real:"7" RX=ReMa:"M3,2[0.142857142857142857142857142857142857,0.285714285714285714285714285714285714,0.428571428571428571428571428571428571,0.571428571428571428571428571428571428,0.714285714285714285714285714285714285,0.857142857142857142857142857142857142]"

In: FL_ASLIFT=0 FL_CPXRES=0 IM=2COMPL RY=ReMa:"M3,2[1,2,3,4,5,6]" RX=Real:"7":Deg
Out: EC=0 FL_CPXRES=0 FL_ASLIFT=1 RL=Real:"7":Deg RX=ReMa:"M3,2[0.142857142857142857142857142857142857,0.285714285714285714285714285714285714,0.428571428571428571428571428571428571,0.571428571428571428571428571428571428,0.714285714285714285714285714285714285,0.857142857142857142857142857142857142]"

In: FL_ASLIFT=0 FL_CPXRES=0 IM=2COMPL RY=ReMa:"M3,2[1,2,3,4,5,6]" RX=Real:"7":MultPi
Out: EC=0 FL_CPXRES=0 FL_ASLIFT=1 RL=Real:"7":MultPi RX=ReMa:"M3,2[0.142857142857142857142857142857142857,0.285714285714285714285714285714285714,0.428571428571428571428571428571428571,0.571428571428571428571428571428571428,0.714285714285714285714285714285714285,0.857142857142857142857142857142857142]"

In: FL_ASLIFT=0 FL_CPXRES=0 FL_SPCRES=1 IM=2COMPL RY=ReMa:"M3,2[1,2,3,4,5,6]" RX=Real:"0"
Out: EC=0 FL_CPXRES=0 FL_ASLIFT=1 RL=Real:"0" RX=ReMa:"M3,2[inf,inf,inf,inf,inf,inf]"

In: FL_ASLIFT=0 FL_CPXRES=0 FL_SPCRES=0 IM=2COMPL RY=ReMa:"M3,2[1,2,3,4,5,6]" RX=Real:"0"
Out: EC=1 FL_CPXRES=0 FL_ASLIFT=0 RY=ReMa:"M3,2[1,2,3,4,5,6]" RX=Real:"0"

;=======================================
; Real / Real Matrix
;=======================================
In: FL_ASLIFT=0 FL_CPXRES=0 IM=2COMPL RY=Real:"7" RX=ReMa:"M3,2[1,2,3,4,5,6]"
Out: EC=0 FL_CPXRES=0 FL_ASLIFT=1 RL=ReMa:"M3,2[1,2,3,4,5,6]" RX=ReMa:"M3,2[7,3.5,2.333333333333333333333333333333333333,1.75,1.4,1.16666666666666666666666666666666666667]"

In: FL_ASLIFT=0 FL_CPXRES=0 IM=2COMPL RY=Real:"7":Deg RX=ReMa:"M3,2[1,2,3,4,5,6]"
Out: EC=0 FL_CPXRES=0 FL_ASLIFT=1 RL=ReMa:"M3,2[1,2,3,4,5,6]" RX=ReMa:"M3,2[7,3.5,2.333333333333333333333333333333333333,1.75,1.4,1.16666666666666666666666666666666666667]"

In: FL_ASLIFT=0 FL_CPXRES=0 IM=2COMPL RY=Real:"7":MultPi RX=ReMa:"M3,2[1,2,3,4,5,6]"
Out: EC=0 FL_CPXRES=0 FL_ASLIFT=1 RL=ReMa:"M3,2[1,2,3,4,5,6]" RX=ReMa:"M3,2[7,3.5,2.333333333333333333333333333333333333,1.75,1.4,1.16666666666666666666666666666666666667]"

In: FL_ASLIFT=0 FL_CPXRES=0 FL_SPCRES=1 IM=2COMPL RY=Real:"7" RX=ReMa:"M3,2[0,1,2,3,4,5]"
Out: EC=0 FL_CPXRES=0 FL_ASLIFT=1 RL=ReMa:"M3,2[0,1,2,3,4,5]" RX=ReMa:"M3,2[inf,7,3.5,2.333333333333333333333333333333333333,1.75,1.4]"

In: FL_ASLIFT=0 FL_CPXRES=0 FL_SPCRES=0 IM=2COMPL RY=Real:"7" RX=ReMa:"M3,2[0,1,2,3,4,5]"
Out: EC=1 FL_CPXRES=0 FL_ASLIFT=0 RY=Real:"7" RX=ReMa:"M3,2[0,1,2,3,4,5]"



;=======================================
; Real Matrix / Complex
;=======================================
In: FL_ASLIFT=0 FL_CPXRES=0 IM=2COMPL RY=ReMa:"M3,2[1,2,3,4,5,6]" RX=Cplx:"7i8"
Out: EC=0 FL_CPXRES=1 FL_ASLIFT=1 RL=Cplx:"7i8" RX=CxMa:"M3,2[0.0619469026548672566371681415929203539823i-0.0707964601769911504424778761061946902655, 0.123893805309734513274336283185840707965i-0.141592920353982300884955752212389380531, 0.185840707964601769911504424778761061947i-0.212389380530973451327433628318584070796, 0.247787610619469026548672566371681415929i-0.283185840707964601769911504424778761062, 0.309734513274336283185840707964601769912i-0.353982300884955752212389380530973451327, 0.371681415929203539823008849557522123894i-0.424778761061946902654867256637168141593]"

;=======================================
; Complex / Real Matrix
;=======================================
In: FL_ASLIFT=0 FL_CPXRES=0 IM=2COMPL RY=Cplx:"7i8" RX=ReMa:"M3,2[1,2,3,4,5,6]"
Out: EC=0 FL_CPXRES=1 FL_ASLIFT=1 RL=ReMa:"M3,2[1,2,3,4,5,6]" RX=CxMa:"M3,2[7i8,3.5i4,2.333333333333333333333333333333333333i2.666666666666666666666666666666666667,1.75i2,1.4i1.6,1.16666666666666666666666666666666666667i1.333333333333333333333333333333333333]"
