;*************************************************************
;*************************************************************
;**                                                         **
;**               CDF of logistic distribution              **
;**                                                         **
;*************************************************************
;*************************************************************
In: FL_SPCRES=0 FL_CPXRES=0 SD=0 RMODE=0 IM=2compl SS=4 WS=64
Func: fnLogisticL



;=======================================
; normalL(Long Integer) --> Real
;=======================================
In:  AM=DEG FL_ASLIFT=0 FL_CPXRES=0 RM=LonI:"0" RS=LonI:"1" RX=LonI:"0"
Out: EC=0 FL_CPXRES=0 FL_ASLIFT=1 RL=LonI:"0" RX=Real:"0.5"

In:  AM=DEG FL_ASLIFT=0 FL_CPXRES=0 RM=LonI:"0" RS=LonI:"1" RX=LonI:"1"
Out: EC=0 FL_CPXRES=0 FL_ASLIFT=1 RL=LonI:"1" RX=Real:"0.7310585786300048792511592418218363"

In:  AM=DEG FL_ASLIFT=0 FL_CPXRES=0 RM=LonI:"0" RS=LonI:"1" RX=LonI:"-1"
Out: EC=0 FL_CPXRES=0 FL_ASLIFT=1 RL=LonI:"-1" RX=Real:"0.2689414213699951207488407581781637"

In:  AM=DEG FL_ASLIFT=0 FL_CPXRES=0 RM=LonI:"0" RS=LonI:"1" RX=LonI:"2"
Out: EC=0 FL_CPXRES=0 FL_ASLIFT=1 RL=LonI:"2" RX=Real:"0.8807970779778824440597291413023968"

In:  AM=DEG FL_ASLIFT=0 FL_CPXRES=0 RM=LonI:"0" RS=LonI:"1" RX=LonI:"-2"
Out: EC=0 FL_CPXRES=0 FL_ASLIFT=1 RL=LonI:"-2" RX=Real:"0.1192029220221175559402708586976032"

In:  AM=DEG FL_ASLIFT=0 FL_CPXRES=0 RM=LonI:"0" RS=LonI:"1" RX=LonI:"3"
Out: EC=0 FL_CPXRES=0 FL_ASLIFT=1 RL=LonI:"3" RX=Real:"0.9525741268224332191211518482282478"

In:  AM=DEG FL_ASLIFT=0 FL_CPXRES=0 RM=LonI:"0" RS=LonI:"1" RX=LonI:"-3"
Out: EC=0 FL_CPXRES=0 FL_ASLIFT=1 RL=LonI:"-3" RX=Real:"0.04742587317756678087884815177175220"

In:  AM=DEG FL_ASLIFT=0 FL_CPXRES=0 RM=LonI:"1" RS=LonI:"1" RX=LonI:"2"
Out: EC=0 FL_CPXRES=0 FL_ASLIFT=1 RL=LonI:"2" RX=Real:"0.7310585786300048792511592418218363"

In:  AM=DEG FL_ASLIFT=0 FL_CPXRES=0 RM=LonI:"1" RS=LonI:"2" RX=LonI:"3"
Out: EC=0 FL_CPXRES=0 FL_ASLIFT=1 RL=LonI:"3" RX=Real:"0.7310585786300048792511592418218363"



;=======================================
; normalL(Time) --> Error24
;=======================================



;=======================================
; normalL(Date) --> Error24
;=======================================



;=======================================
; normalL(String) --> Error24
;=======================================
In:  FL_ASLIFT=0 RX=Stri:"String test"
Out: EC=24 FL_ASLIFT=0 RX=Stri:"String test"



;=======================================
; normalL(Real Matrix) --> Error24
;=======================================



;=======================================
; normalL(Complex Matrix) --> Error24
;=======================================



;=======================================
; normalL(Short Integer) --> Error24
;=======================================



;=======================================
; normalL(Real) --> Real
;=======================================
In:  AM=DEG FL_ASLIFT=0 FL_CPXRES=0 RM=Real:"0" RS=Real:"1" RX=Real:"0"
Out: EC=0 FL_CPXRES=0 FL_ASLIFT=1 RL=Real:"0" RX=Real:"0.5"

In:  AM=DEG FL_ASLIFT=0 FL_CPXRES=0 RM=Real:"0" RS=Real:"1" RX=Real:"1"
Out: EC=0 FL_CPXRES=0 FL_ASLIFT=1 RL=Real:"1" RX=Real:"0.7310585786300048792511592418218363"

In:  AM=DEG FL_ASLIFT=0 FL_CPXRES=0 RM=Real:"0" RS=Real:"1" RX=Real:"-1"
Out: EC=0 FL_CPXRES=0 FL_ASLIFT=1 RL=Real:"-1" RX=Real:"0.2689414213699951207488407581781637"

In:  AM=DEG FL_ASLIFT=0 FL_CPXRES=0 RM=Real:"0" RS=Real:"1" RX=Real:"2"
Out: EC=0 FL_CPXRES=0 FL_ASLIFT=1 RL=Real:"2" RX=Real:"0.8807970779778824440597291413023968"

In:  AM=DEG FL_ASLIFT=0 FL_CPXRES=0 RM=Real:"0" RS=Real:"1" RX=Real:"-2"
Out: EC=0 FL_CPXRES=0 FL_ASLIFT=1 RL=Real:"-2" RX=Real:"0.1192029220221175559402708586976032"

In:  AM=DEG FL_ASLIFT=0 FL_CPXRES=0 RM=Real:"0" RS=Real:"1" RX=Real:"3"
Out: EC=0 FL_CPXRES=0 FL_ASLIFT=1 RL=Real:"3" RX=Real:"0.9525741268224332191211518482282478"

In:  AM=DEG FL_ASLIFT=0 FL_CPXRES=0 RM=Real:"0" RS=Real:"1" RX=Real:"-3"
Out: EC=0 FL_CPXRES=0 FL_ASLIFT=1 RL=Real:"-3" RX=Real:"0.04742587317756678087884815177175220"

In:  AM=DEG FL_ASLIFT=0 FL_CPXRES=0 RM=Real:"1" RS=Real:"1" RX=Real:"2"
Out: EC=0 FL_CPXRES=0 FL_ASLIFT=1 RL=Real:"2" RX=Real:"0.7310585786300048792511592418218363"

In:  AM=DEG FL_ASLIFT=0 FL_CPXRES=0 RM=Real:"1" RS=Real:"2" RX=Real:"3"
Out: EC=0 FL_CPXRES=0 FL_ASLIFT=1 RL=Real:"3" RX=Real:"0.7310585786300048792511592418218363"



;=======================================
; normalL(Complex) --> Error24
;=======================================
