;*************************************************************
;*************************************************************
;**                                                         **
;**         CCDF of negative binomial distribution          **
;**                                                         **
;*************************************************************
;*************************************************************
In: FL_SPCRES=0 FL_CPXRES=0 SD=0 RMODE=0 IM=2compl SS=4 WS=64
Func: fnNegBinomialR



;=======================================
; negBinomialR(Long Integer) --> Real
;=======================================
In:  AM=DEG FL_ASLIFT=0 FL_CPXRES=0 RP=Real:"0.5" RN=LonI:"5" RX=LonI:"0"
Out: EC=0 FL_CPXRES=0 FL_ASLIFT=1 RL=LonI:"0" RX=Real:"1"

In:  AM=DEG FL_ASLIFT=0 FL_CPXRES=0 RP=Real:"0.5" RN=LonI:"5" RX=LonI:"1"
Out: EC=0 FL_CPXRES=0 FL_ASLIFT=1 RL=LonI:"1" RX=Real:"0.96875"

In:  AM=DEG FL_ASLIFT=0 FL_CPXRES=0 RP=Real:"0.5" RN=LonI:"5" RX=LonI:"3"
Out: EC=0 FL_CPXRES=0 FL_ASLIFT=1 RL=LonI:"3" RX=Real:"0.7734375"

In:  AM=DEG FL_ASLIFT=0 FL_CPXRES=0 RP=Real:"0.5" RN=LonI:"5" RX=LonI:"5"
Out: EC=0 FL_CPXRES=0 FL_ASLIFT=1 RL=LonI:"5" RX=Real:"0.5"

In:  AM=DEG FL_ASLIFT=0 FL_CPXRES=0 RP=Real:"0.5" RN=LonI:"5" RX=LonI:"10"
Out: EC=0 FL_CPXRES=0 FL_ASLIFT=1 RL=LonI:"10" RX=Real:"0.08978271484375"


In:  AM=DEG FL_ASLIFT=0 FL_CPXRES=0 RP=Real:"0.5" RN=LonI:"20" RX=LonI:"0"
Out: EC=0 FL_CPXRES=0 FL_ASLIFT=1 RL=LonI:"0" RX=Real:"1"

In:  AM=DEG FL_ASLIFT=0 FL_CPXRES=0 RP=Real:"0.5" RN=LonI:"20" RX=LonI:"10"
Out: EC=0 FL_CPXRES=0 FL_ASLIFT=1 RL=LonI:"10" RX=Real:"0.9692858271300792694091796875"

In:  AM=DEG FL_ASLIFT=0 FL_CPXRES=0 RP=Real:"0.5" RN=LonI:"20" RX=LonI:"15"
Out: EC=0 FL_CPXRES=0 FL_ASLIFT=1 RL=LonI:"15" RX=Real:"0.80423584743402898311614990234375"

In:  AM=DEG FL_ASLIFT=0 FL_CPXRES=0 RP=Real:"0.5" RN=LonI:"20" RX=LonI:"20"
Out: EC=0 FL_CPXRES=0 FL_ASLIFT=1 RL=LonI:"20" RX=Real:"0.5"

In:  AM=DEG FL_ASLIFT=0 FL_CPXRES=0 RP=Real:"0.5" RN=LonI:"20" RX=LonI:"30"
Out: EC=0 FL_CPXRES=0 FL_ASLIFT=1 RL=LonI:"30" RX=Real:"0.07620388598073901675888919271528721"


In:  AM=DEG FL_ASLIFT=0 FL_CPXRES=0 RP=Real:"0.1" RN=LonI:"5" RX=LonI:"0"
Out: EC=0 FL_CPXRES=0 FL_ASLIFT=1 RL=LonI:"0" RX=Real:"1"

In:  AM=DEG FL_ASLIFT=0 FL_CPXRES=0 RP=Real:"0.1" RN=LonI:"5" RX=LonI:"1"
Out: EC=0 FL_CPXRES=0 FL_ASLIFT=1 RL=LonI:"1" RX=Real:"0.40951"

In:  AM=DEG FL_ASLIFT=0 FL_CPXRES=0 RP=Real:"0.1" RN=LonI:"5" RX=LonI:"2"
Out: EC=0 FL_CPXRES=0 FL_ASLIFT=1 RL=LonI:"2" RX=Real:"0.114265"

In:  AM=DEG FL_ASLIFT=0 FL_CPXRES=0 RP=Real:"0.1" RN=LonI:"5" RX=LonI:"3"
Out: EC=0 FL_CPXRES=0 FL_ASLIFT=1 RL=LonI:"3" RX=Real:"0.0256915"

In:  AM=DEG FL_ASLIFT=0 FL_CPXRES=0 RP=Real:"0.1" RN=LonI:"5" RX=LonI:"4"
Out: EC=0 FL_CPXRES=0 FL_ASLIFT=1 RL=LonI:"4" RX=Real:"0.00502435"


In:  AM=DEG FL_ASLIFT=0 FL_CPXRES=0 RP=Real:"0.9" RN=LonI:"5" RX=LonI:"0"
Out: EC=0 FL_CPXRES=0 FL_ASLIFT=1 RL=LonI:"0" RX=Real:"1"

In:  AM=DEG FL_ASLIFT=0 FL_CPXRES=0 RP=Real:"0.9" RN=LonI:"5" RX=LonI:"15"
Out: EC=0 FL_CPXRES=0 FL_ASLIFT=1 RL=LonI:"15" RX=Real:"0.964805844995525214"

In:  AM=DEG FL_ASLIFT=0 FL_CPXRES=0 RP=Real:"0.9" RN=LonI:"5" RX=LonI:"30"
Out: EC=0 FL_CPXRES=0 FL_ASLIFT=1 RL=LonI:"30" RX=Real:"0.750408283787877234610040056524102"

In:  AM=DEG FL_ASLIFT=0 FL_CPXRES=0 RP=Real:"0.9" RN=LonI:"5" RX=LonI:"60"
Out: EC=0 FL_CPXRES=0 FL_ASLIFT=1 RL=LonI:"60" RX=Real:"0.2204689041604518646963565871531302"

In:  AM=DEG FL_ASLIFT=0 FL_CPXRES=0 RP=Real:"0.9" RN=LonI:"5" RX=LonI:"100"
Out: EC=0 FL_CPXRES=0 FL_ASLIFT=1 RL=LonI:"100" RX=Real:"0.01793764310725723182906358432571180"



;=======================================
; negBinomialR(Time) --> Error24
;=======================================



;=======================================
; negBinomialR(Date) --> Error24
;=======================================



;=======================================
; negBinomialR(String) --> Error24
;=======================================
In:  FL_ASLIFT=0 RX=Stri:"String test"
Out: EC=24 FL_ASLIFT=0 RX=Stri:"String test"



;=======================================
; negBinomialR(Real Matrix) --> Error24
;=======================================



;=======================================
; negBinomialR(Complex Matrix) --> Error24
;=======================================



;=======================================
; negBinomialR(Short Integer) --> Error24
;=======================================



;=======================================
; negBinomialR(Real) --> Real
;=======================================
In:  AM=DEG FL_ASLIFT=0 FL_CPXRES=0 RP=Real:"0.5" RN=Real:"5" RX=Real:"0"
Out: EC=0 FL_CPXRES=0 FL_ASLIFT=1 RL=Real:"0" RX=Real:"1"

In:  AM=DEG FL_ASLIFT=0 FL_CPXRES=0 RP=Real:"0.5" RN=Real:"5" RX=Real:"1"
Out: EC=0 FL_CPXRES=0 FL_ASLIFT=1 RL=Real:"1" RX=Real:"0.96875"

In:  AM=DEG FL_ASLIFT=0 FL_CPXRES=0 RP=Real:"0.5" RN=Real:"5" RX=Real:"3"
Out: EC=0 FL_CPXRES=0 FL_ASLIFT=1 RL=Real:"3" RX=Real:"0.7734375"

In:  AM=DEG FL_ASLIFT=0 FL_CPXRES=0 RP=Real:"0.5" RN=Real:"5" RX=Real:"5"
Out: EC=0 FL_CPXRES=0 FL_ASLIFT=1 RL=Real:"5" RX=Real:"0.5"

In:  AM=DEG FL_ASLIFT=0 FL_CPXRES=0 RP=Real:"0.5" RN=Real:"5" RX=Real:"10"
Out: EC=0 FL_CPXRES=0 FL_ASLIFT=1 RL=Real:"10" RX=Real:"0.08978271484375"


In:  AM=DEG FL_ASLIFT=0 FL_CPXRES=0 RP=Real:"0.5" RN=Real:"20" RX=Real:"0"
Out: EC=0 FL_CPXRES=0 FL_ASLIFT=1 RL=Real:"0" RX=Real:"1"

In:  AM=DEG FL_ASLIFT=0 FL_CPXRES=0 RP=Real:"0.5" RN=Real:"20" RX=Real:"10"
Out: EC=0 FL_CPXRES=0 FL_ASLIFT=1 RL=Real:"10" RX=Real:"0.9692858271300792694091796875"

In:  AM=DEG FL_ASLIFT=0 FL_CPXRES=0 RP=Real:"0.5" RN=Real:"20" RX=Real:"15"
Out: EC=0 FL_CPXRES=0 FL_ASLIFT=1 RL=Real:"15" RX=Real:"0.80423584743402898311614990234375"

In:  AM=DEG FL_ASLIFT=0 FL_CPXRES=0 RP=Real:"0.5" RN=Real:"20" RX=Real:"20"
Out: EC=0 FL_CPXRES=0 FL_ASLIFT=1 RL=Real:"20" RX=Real:"0.5"

In:  AM=DEG FL_ASLIFT=0 FL_CPXRES=0 RP=Real:"0.5" RN=Real:"20" RX=Real:"30"
Out: EC=0 FL_CPXRES=0 FL_ASLIFT=1 RL=Real:"30" RX=Real:"0.07620388598073901675888919271528721"


In:  AM=DEG FL_ASLIFT=0 FL_CPXRES=0 RP=Real:"0.1" RN=Real:"5" RX=Real:"0"
Out: EC=0 FL_CPXRES=0 FL_ASLIFT=1 RL=Real:"0" RX=Real:"1"

In:  AM=DEG FL_ASLIFT=0 FL_CPXRES=0 RP=Real:"0.1" RN=Real:"5" RX=Real:"1"
Out: EC=0 FL_CPXRES=0 FL_ASLIFT=1 RL=Real:"1" RX=Real:"0.40951"

In:  AM=DEG FL_ASLIFT=0 FL_CPXRES=0 RP=Real:"0.1" RN=Real:"5" RX=Real:"2"
Out: EC=0 FL_CPXRES=0 FL_ASLIFT=1 RL=Real:"2" RX=Real:"0.114265"

In:  AM=DEG FL_ASLIFT=0 FL_CPXRES=0 RP=Real:"0.1" RN=Real:"5" RX=Real:"3"
Out: EC=0 FL_CPXRES=0 FL_ASLIFT=1 RL=Real:"3" RX=Real:"0.0256915"

In:  AM=DEG FL_ASLIFT=0 FL_CPXRES=0 RP=Real:"0.1" RN=Real:"5" RX=Real:"4"
Out: EC=0 FL_CPXRES=0 FL_ASLIFT=1 RL=Real:"4" RX=Real:"0.00502435"


In:  AM=DEG FL_ASLIFT=0 FL_CPXRES=0 RP=Real:"0.9" RN=Real:"5" RX=Real:"0"
Out: EC=0 FL_CPXRES=0 FL_ASLIFT=1 RL=Real:"0" RX=Real:"1"

In:  AM=DEG FL_ASLIFT=0 FL_CPXRES=0 RP=Real:"0.9" RN=Real:"5" RX=Real:"15"
Out: EC=0 FL_CPXRES=0 FL_ASLIFT=1 RL=Real:"15" RX=Real:"0.964805844995525214"

In:  AM=DEG FL_ASLIFT=0 FL_CPXRES=0 RP=Real:"0.9" RN=Real:"5" RX=Real:"30"
Out: EC=0 FL_CPXRES=0 FL_ASLIFT=1 RL=Real:"30" RX=Real:"0.750408283787877234610040056524102"

In:  AM=DEG FL_ASLIFT=0 FL_CPXRES=0 RP=Real:"0.9" RN=Real:"5" RX=Real:"60"
Out: EC=0 FL_CPXRES=0 FL_ASLIFT=1 RL=Real:"60" RX=Real:"0.2204689041604518646963565871531302"

In:  AM=DEG FL_ASLIFT=0 FL_CPXRES=0 RP=Real:"0.9" RN=Real:"5" RX=Real:"100"
Out: EC=0 FL_CPXRES=0 FL_ASLIFT=1 RL=Real:"100" RX=Real:"0.01793764310725723182906358432571180"



;=======================================
; negBinomialR(Complex) --> Error24
;=======================================
