;*************************************************************
;*************************************************************
;**                                                         **
;**                       DATE ^ ...                        **
;**                       ... ^ DATE                        **
;**                                                         **
;*************************************************************
;*************************************************************
In: FL_SPCRES=0 FL_CPXRES=0 SD=0 RMODE=0 IM=2compl SS=4 WS=64
Func: fnPower



;==================================================================
; Date ^ Long Integer  see in power_longInteger.txt
; Date ^ Real          see in power_real.txt
; Date ^ Complex       see in power_complex.txt
; Date ^ Time          see in power_time.txt
;==================================================================



;=======================================
; Date ^ Date
;=======================================



;=======================================
; Date ^ String
;=======================================

;=======================================
; String ^ Date
;=======================================



;=======================================
; Date ^ Real Matrix
;=======================================

;=======================================
; Real Matrix ^ Date
;=======================================



;=======================================
; Date ^ Complex Matrix
;=======================================

;=======================================
; Complex Matrix ^ Date
;=======================================



;=======================================
; Date ^ Short Integer
;=======================================

;=======================================
; Short Integer ^ Date
;=======================================



;=======================================
; Date ^ Real
;=======================================

;=======================================
; Real ^ Date
;=======================================



;=======================================
; Date ^ Complex
;=======================================

;=======================================
; Complex ^ Date
;=======================================
