;*************************************************************
;*************************************************************
;**                                                         **
;**               PDF of Weibull distribution               **
;**                                                         **
;*************************************************************
;*************************************************************
In: FL_SPCRES=0 FL_CPXRES=0 SD=0 RMODE=0 IM=2compl SS=4 WS=64
Func: fnWeibullP



;=======================================
; WeibullP(Long Integer) --> Real
;=======================================
In:  AM=DEG FL_ASLIFT=0 FL_CPXRES=0 RS=LonI:"1" RQ=LonI:"1" RX=LonI:"0"
Out: EC=0 FL_CPXRES=0 FL_ASLIFT=1 RL=LonI:"0" RX=Real:"0"

In:  AM=DEG FL_ASLIFT=0 FL_CPXRES=0 RS=LonI:"1" RQ=LonI:"1" RX=LonI:"1"
Out: EC=0 FL_CPXRES=0 FL_ASLIFT=1 RL=LonI:"1" RX=Real:"0.3678794411714423215955237701614609"

In:  AM=DEG FL_ASLIFT=0 FL_CPXRES=0 RS=LonI:"1" RQ=LonI:"1" RX=LonI:"2"
Out: EC=0 FL_CPXRES=0 FL_ASLIFT=1 RL=LonI:"2" RX=Real:"0.1353352832366126918939994949724844"

In:  AM=DEG FL_ASLIFT=0 FL_CPXRES=0 RS=LonI:"1" RQ=LonI:"1" RX=LonI:"3"
Out: EC=0 FL_CPXRES=0 FL_ASLIFT=1 RL=LonI:"3" RX=Real:"0.04978706836786394297934241565006178"

In:  AM=DEG FL_ASLIFT=0 FL_CPXRES=0 RS=LonI:"2" RQ=LonI:"1" RX=LonI:"2"
Out: EC=0 FL_CPXRES=0 FL_ASLIFT=1 RL=LonI:"2" RX=Real:"0.1839397205857211607977618850807304"


In:  AM=DEG FL_ASLIFT=0 FL_CPXRES=0 RS=LonI:"1" RQ=LonI:"2" RX=LonI:"0"
Out: EC=0 FL_CPXRES=0 FL_ASLIFT=1 RL=LonI:"0" RX=Real:"0"

In:  AM=DEG FL_ASLIFT=0 FL_CPXRES=0 RS=LonI:"1" RQ=LonI:"2" RX=LonI:"1"
Out: EC=0 FL_CPXRES=0 FL_ASLIFT=1 RL=LonI:"1" RX=Real:"0.7357588823428846431910475403229217"

In:  AM=DEG FL_ASLIFT=0 FL_CPXRES=0 RS=LonI:"1" RQ=LonI:"2" RX=LonI:"2"
Out: EC=0 FL_CPXRES=0 FL_ASLIFT=1 RL=LonI:"2" RX=Real:"0.07326255555493672117487208509296497"

In:  AM=DEG FL_ASLIFT=0 FL_CPXRES=0 RS=LonI:"1" RQ=LonI:"2" RX=LonI:"3"
Out: EC=0 FL_CPXRES=0 FL_ASLIFT=1 RL=LonI:"3" RX=Real:"7.404588245200772969858201443802030e-4"

In:  AM=DEG FL_ASLIFT=0 FL_CPXRES=0 RS=LonI:"2" RQ=LonI:"2" RX=LonI:"2"
Out: EC=0 FL_CPXRES=0 FL_ASLIFT=1 RL=LonI:"2" RX=Real:"0.3678794411714423215955237701614609"


In:  AM=DEG FL_ASLIFT=0 FL_CPXRES=0 RS=LonI:"1" RQ=Real:"0.5" RX=LonI:"0"
Out: EC=0 FL_CPXRES=0 FL_ASLIFT=1 RL=LonI:"0" RX=Real:"0"

In:  AM=DEG FL_ASLIFT=0 FL_CPXRES=0 RS=LonI:"1" RQ=Real:"0.5" RX=LonI:"1"
Out: EC=0 FL_CPXRES=0 FL_ASLIFT=1 RL=LonI:"1" RX=Real:"0.1839397205857211607977618850807304"

In:  AM=DEG FL_ASLIFT=0 FL_CPXRES=0 RS=LonI:"1" RQ=Real:"0.5" RX=LonI:"2"
Out: EC=0 FL_CPXRES=0 FL_ASLIFT=1 RL=LonI:"2" RX=Real:"0.08595474576918094590790089441973243"

In:  AM=DEG FL_ASLIFT=0 FL_CPXRES=0 RS=LonI:"1" RQ=Real:"0.5" RX=LonI:"3"
Out: EC=0 FL_CPXRES=0 FL_ASLIFT=1 RL=LonI:"3" RX=Real:"0.05107275304645724100135878061013659"

In:  AM=DEG FL_ASLIFT=0 FL_CPXRES=0 RS=LonI:"2" RQ=Real:"0.5" RX=LonI:"2"
Out: EC=0 FL_CPXRES=0 FL_ASLIFT=1 RL=LonI:"2" RX=Real:"0.09196986029286058039888094254036522"



;=======================================
; WeibullP(Time) --> Error24
;=======================================



;=======================================
; WeibullP(Date) --> Error24
;=======================================



;=======================================
; WeibullP(String) --> Error24
;=======================================
In:  FL_ASLIFT=0 RX=Stri:"String test"
Out: EC=24 FL_ASLIFT=0 RX=Stri:"String test"



;=======================================
; WeibullP(Real Matrix) --> Error24
;=======================================



;=======================================
; WeibullP(Complex Matrix) --> Error24
;=======================================



;=======================================
; WeibullP(Short Integer) --> Error24
;=======================================



;=======================================
; WeibullP(Real) --> Real
;=======================================
In:  AM=DEG FL_ASLIFT=0 FL_CPXRES=0 RS=Real:"1" RQ=Real:"1" RX=Real:"0"
Out: EC=0 FL_CPXRES=0 FL_ASLIFT=1 RL=Real:"0" RX=Real:"0"

In:  AM=DEG FL_ASLIFT=0 FL_CPXRES=0 RS=Real:"1" RQ=Real:"1" RX=Real:"1"
Out: EC=0 FL_CPXRES=0 FL_ASLIFT=1 RL=Real:"1" RX=Real:"0.3678794411714423215955237701614609"

In:  AM=DEG FL_ASLIFT=0 FL_CPXRES=0 RS=Real:"1" RQ=Real:"1" RX=Real:"2"
Out: EC=0 FL_CPXRES=0 FL_ASLIFT=1 RL=Real:"2" RX=Real:"0.1353352832366126918939994949724844"

In:  AM=DEG FL_ASLIFT=0 FL_CPXRES=0 RS=Real:"1" RQ=Real:"1" RX=Real:"3"
Out: EC=0 FL_CPXRES=0 FL_ASLIFT=1 RL=Real:"3" RX=Real:"0.04978706836786394297934241565006178"

In:  AM=DEG FL_ASLIFT=0 FL_CPXRES=0 RS=Real:"2" RQ=Real:"1" RX=Real:"2"
Out: EC=0 FL_CPXRES=0 FL_ASLIFT=1 RL=Real:"2" RX=Real:"0.1839397205857211607977618850807304"


In:  AM=DEG FL_ASLIFT=0 FL_CPXRES=0 RS=Real:"1" RQ=Real:"2" RX=Real:"0"
Out: EC=0 FL_CPXRES=0 FL_ASLIFT=1 RL=Real:"0" RX=Real:"0"

In:  AM=DEG FL_ASLIFT=0 FL_CPXRES=0 RS=Real:"1" RQ=Real:"2" RX=Real:"1"
Out: EC=0 FL_CPXRES=0 FL_ASLIFT=1 RL=Real:"1" RX=Real:"0.7357588823428846431910475403229217"

In:  AM=DEG FL_ASLIFT=0 FL_CPXRES=0 RS=Real:"1" RQ=Real:"2" RX=Real:"2"
Out: EC=0 FL_CPXRES=0 FL_ASLIFT=1 RL=Real:"2" RX=Real:"0.07326255555493672117487208509296497"

In:  AM=DEG FL_ASLIFT=0 FL_CPXRES=0 RS=Real:"1" RQ=Real:"2" RX=Real:"3"
Out: EC=0 FL_CPXRES=0 FL_ASLIFT=1 RL=Real:"3" RX=Real:"7.404588245200772969858201443802030e-4"

In:  AM=DEG FL_ASLIFT=0 FL_CPXRES=0 RS=Real:"2" RQ=Real:"2" RX=Real:"2"
Out: EC=0 FL_CPXRES=0 FL_ASLIFT=1 RL=Real:"2" RX=Real:"0.3678794411714423215955237701614609"


In:  AM=DEG FL_ASLIFT=0 FL_CPXRES=0 RS=Real:"1" RQ=Real:"0.5" RX=Real:"0"
Out: EC=0 FL_CPXRES=0 FL_ASLIFT=1 RL=Real:"0" RX=Real:"0"

In:  AM=DEG FL_ASLIFT=0 FL_CPXRES=0 RS=Real:"1" RQ=Real:"0.5" RX=Real:"1"
Out: EC=0 FL_CPXRES=0 FL_ASLIFT=1 RL=Real:"1" RX=Real:"0.1839397205857211607977618850807304"

In:  AM=DEG FL_ASLIFT=0 FL_CPXRES=0 RS=Real:"1" RQ=Real:"0.5" RX=Real:"2"
Out: EC=0 FL_CPXRES=0 FL_ASLIFT=1 RL=Real:"2" RX=Real:"0.08595474576918094590790089441973243"

In:  AM=DEG FL_ASLIFT=0 FL_CPXRES=0 RS=Real:"1" RQ=Real:"0.5" RX=Real:"3"
Out: EC=0 FL_CPXRES=0 FL_ASLIFT=1 RL=Real:"3" RX=Real:"0.05107275304645724100135878061013659"

In:  AM=DEG FL_ASLIFT=0 FL_CPXRES=0 RS=Real:"2" RQ=Real:"0.5" RX=Real:"2"
Out: EC=0 FL_CPXRES=0 FL_ASLIFT=1 RL=Real:"2" RX=Real:"0.09196986029286058039888094254036522"



;=======================================
; WeibullP(Complex) --> Error24
;=======================================
